[
{
"img":"galeria1.jpg",
"thum":"thumbnails/thumbnails.jpg"
},
{
"img":"galeria3.jpg",
"thum":"thumbnails/thumbnails.jpg"
},
{
"img":"galeria3.jpg",
"thum":"thumbnails/thumbnails.jpg"
},
{
"img":"galeria3.jpg",
"thum":"thumbnails/thumbnails.jpg"
},
{
"img":"galeria3.jpg",
"thum":"thumbnails/thumbnails.jpg"
},
{
"img":"galeria2.jpg",
"thum":"thumbnails/thumbnails.jpg"
}
]
