<?xml version="1.0" encoding="utf-8"?>
<!-- Generator: Adobe Illustrator 16.0.0, SVG Export Plug-In . SVG Version: 6.00 Build 0)  -->
<!DOCTYPE svg PUBLIC "-//W3C//DTD SVG 1.1//EN" "http://www.w3.org/Graphics/SVG/1.1/DTD/svg11.dtd">
<svg version="1.1" id="Layer_1" xmlns="http://www.w3.org/2000/svg" xmlns:xlink="http://www.w3.org/1999/xlink" x="0px" y="0px"
	 width="30px" height="30px" viewBox="0 0 30 30" enable-background="new 0 0 30 30" xml:space="preserve">
<g>
	<path fill-rule="evenodd" clip-rule="evenodd" fill="#CF6C28" d="M9.008,21.932c-3.271-0.179-5.188-2.595-5.638-4.303
		c0.886,0.138,1.755,0.113,2.624-0.12c-1.395-0.369-2.569-1.073-3.469-2.205c-0.901-1.134-1.35-2.423-1.348-3.913
		c0.87,0.431,1.734,0.723,2.753,0.735c-1.341-0.973-2.208-2.2-2.551-3.76C1.038,6.813,1.264,5.335,2.05,3.925
		c3.344,3.92,7.554,6.084,12.707,6.438c-0.041-0.412-0.095-0.783-0.112-1.155c-0.068-1.497,0.357-2.843,1.275-4.03
		c0.912-1.18,2.1-1.943,3.554-2.252c1.607-0.342,3.142-0.107,4.546,0.771c0.409,0.256,0.76,0.605,1.148,0.897
		c0.082,0.061,0.218,0.1,0.314,0.08c1.247-0.255,2.422-0.708,3.531-1.332c0.042-0.023,0.085-0.041,0.188-0.091
		c-0.479,1.438-1.343,2.498-2.55,3.3c0.008,0.022,0.014,0.044,0.021,0.066c0.367-0.065,0.738-0.115,1.102-0.198
		c0.374-0.086,0.744-0.194,1.109-0.311C29.247,5.992,29.603,5.853,30,5.759c-0.281,0.358-0.554,0.723-0.845,1.073
		c-0.6,0.724-1.29,1.353-2.034,1.925c-0.083,0.063-0.143,0.214-0.14,0.323c0.033,1.415-0.084,2.816-0.386,4.199
		c-0.35,1.603-0.9,3.133-1.651,4.591c-0.574,1.114-1.255,2.159-2.047,3.127c-0.757,0.925-1.575,1.797-2.541,2.507
		c-0.771,0.567-1.563,1.112-2.388,1.599c-1.26,0.744-2.63,1.232-4.049,1.589c-1.986,0.5-4,0.628-6.032,0.467
		c-1.465-0.116-2.891-0.437-4.28-0.929c-1.189-0.421-2.318-0.959-3.39-1.62C0.165,24.578,0.115,24.543,0,24.469
		C3.381,24.782,6.37,23.964,9.008,21.932z"/>
</g>
</svg>
