<?xml version="1.0" encoding="utf-8"?>
<!-- Generator: Adobe Illustrator 16.0.0, SVG Export Plug-In . SVG Version: 6.00 Build 0)  -->
<!DOCTYPE svg PUBLIC "-//W3C//DTD SVG 1.1//EN" "http://www.w3.org/Graphics/SVG/1.1/DTD/svg11.dtd">
<svg version="1.1" id="Layer_1" xmlns="http://www.w3.org/2000/svg" xmlns:xlink="http://www.w3.org/1999/xlink" x="0px" y="0px"
	 width="1280px" height="639.25px" viewBox="-334 0 1280 639.25" enable-background="new -334 0 1280 639.25" xml:space="preserve">
<rect id="XMLID_2_" x="-334" fill="#38271C" width="1280" height="639.25"/>
<g id="XMLID_5_">
	<g>
		<defs>
			<rect id="SVGID_1_" x="-334" width="639.25" height="639.25"/>
		</defs>
		<clipPath id="SVGID_2_">
			<use xlink:href="#SVGID_1_"  overflow="visible"/>
		</clipPath>
		<g id="XMLID_1_" clip-path="url(#SVGID_2_)">
			<g id="XMLID_4_">
				<g id="XMLID_656_">
					<path id="XMLID_665_" fill="#28170E" d="M215.115,49.222l79.906,79.906l79.907-79.906l-79.907-79.906L215.115,49.222z
						 M362.782,49.222l-30.685,30.684l-24.609-24.611l18.538-18.538l12.145,12.146l-6.073,6.073l-6.071-6.073l-6.073,6.073
						l12.145,12.146l18.538-18.539l-24.609-24.61l-22.694,22.693l-9.909,9.909l-22.694,22.693l24.612,24.612l6.073-6.073
						l12.145-12.146l-12.145-12.146l-6.073,6.073l6.073,6.073l-6.073,6.073l-12.145-12.146l18.538-18.538l24.61,24.611
						l-30.683,30.684l-37.077-37.077l0,0L227.9,48.583l30.685-30.684l24.612,24.611l-18.539,18.539l-12.146-12.146l6.073-6.073
						l6.073,6.073l6.071-6.073l-12.145-12.146l-18.538,18.538l24.609,24.611l23.653-23.652l7.991-7.991l23.653-23.652L295.341-6.073
						l-18.538,18.538l12.146,12.146l6.071-6.073l-6.071-6.073l6.071-6.073l12.147,12.146l-18.539,18.539l-24.612-24.611
						l30.685-30.684l28.126,28.127L362.782,49.222z"/>
					<polygon id="XMLID_664_" fill="#28170E" points="309.724,-30.684 374.928,34.839 374.928,21.095 323.149,-30.684 					"/>
					<polygon id="XMLID_663_" fill="#28170E" points="338.491,-30.684 374.928,6.073 374.928,-7.671 351.915,-30.684 					"/>
					<polygon id="XMLID_662_" fill="#28170E" points="323.149,129.128 374.928,77.349 374.928,63.925 309.724,129.128 					"/>
					<polygon id="XMLID_661_" fill="#28170E" points="351.915,129.128 374.928,106.115 374.928,92.691 338.491,129.128 					"/>
					<polygon id="XMLID_660_" fill="#28170E" points="266.895,-30.684 215.115,21.095 215.115,34.839 280.638,-30.684 					"/>
					<polygon id="XMLID_659_" fill="#28170E" points="238.129,-30.684 215.115,-7.671 215.115,6.073 251.873,-30.684 					"/>
					<polygon id="XMLID_658_" fill="#28170E" points="215.115,77.349 266.895,129.128 280.638,129.128 215.115,63.925 					"/>
					<polygon id="XMLID_657_" fill="#28170E" points="215.115,106.115 238.129,129.128 251.873,129.128 215.115,92.691 					"/>
				</g>
				<g id="XMLID_630_">
					<path id="XMLID_639_" fill="#28170E" d="M215.115,209.035l79.906,79.906l79.907-79.906l-79.907-79.906L215.115,209.035z
						 M362.782,209.035l-30.685,30.684l-24.609-24.611l18.538-18.538l12.145,12.146l-6.073,6.073l-6.071-6.073l-6.073,6.073
						l12.145,12.146l18.538-18.538l-24.609-24.611l-22.694,22.693l-9.909,9.909l-22.694,22.693l24.612,24.612l6.073-6.073
						l12.145-12.146l-12.145-12.146l-6.073,6.073l6.073,6.073l-6.073,6.073l-12.145-12.146l18.538-18.538l24.61,24.611
						l-30.683,30.684l-37.077-37.077l0,0L227.9,208.396l30.685-30.684l24.612,24.611l-18.539,18.539l-12.146-12.146l6.073-6.073
						l6.073,6.073l6.071-6.073l-12.145-12.146l-18.538,18.538l24.609,24.611l23.653-23.652l7.991-7.991l23.653-23.652
						l-24.612-24.611l-18.538,18.538l12.146,12.146l6.071-6.073l-6.071-6.073l6.071-6.072l12.147,12.146l-18.539,18.539
						l-24.612-24.612l30.685-30.684l28.126,28.127L362.782,209.035z"/>
					<polygon id="XMLID_638_" fill="#28170E" points="309.724,129.128 374.928,194.652 374.928,180.908 323.149,129.128 					"/>
					<polygon id="XMLID_637_" fill="#28170E" points="338.491,129.128 374.928,165.885 374.928,152.141 351.915,129.128 					"/>
					<polygon id="XMLID_636_" fill="#28170E" points="323.149,288.941 374.928,237.162 374.928,223.738 309.724,288.941 					"/>
					<polygon id="XMLID_635_" fill="#28170E" points="351.915,288.941 374.928,265.928 374.928,252.503 338.491,288.941 					"/>
					<polygon id="XMLID_634_" fill="#28170E" points="266.895,129.128 215.115,180.908 215.115,194.652 280.638,129.128 					"/>
					<polygon id="XMLID_633_" fill="#28170E" points="238.129,129.128 215.115,152.141 215.115,165.885 251.873,129.128 					"/>
					<polygon id="XMLID_632_" fill="#28170E" points="215.115,237.162 266.895,288.941 280.638,288.941 215.115,223.738 					"/>
					<polygon id="XMLID_631_" fill="#28170E" points="215.115,265.928 238.129,288.941 251.873,288.941 215.115,252.503 					"/>
				</g>
				<g id="XMLID_604_">
					<path id="XMLID_613_" fill="#28170E" d="M215.115,368.847l79.906,79.907l79.907-79.907l-79.907-79.906L215.115,368.847z
						 M362.782,368.847l-30.685,30.684l-24.609-24.612l18.538-18.538l12.145,12.146l-6.073,6.073l-6.071-6.073l-6.073,6.073
						l12.145,12.146l18.538-18.538l-24.609-24.611l-22.694,22.693l-9.909,9.909l-22.694,22.693l24.612,24.611l6.073-6.073
						l12.145-12.146l-12.145-12.146l-6.073,6.073l6.073,6.072l-6.073,6.073l-12.145-12.146l18.538-18.538l24.61,24.61
						l-30.683,30.685l-37.077-37.077l0,0L227.9,368.208l30.685-30.684l24.612,24.611l-18.539,18.539l-12.146-12.146l6.073-6.073
						l6.073,6.073l6.071-6.073l-12.145-12.146l-18.538,18.538l24.609,24.611l23.653-23.652l7.991-7.991l23.653-23.652
						l-24.612-24.611l-18.538,18.538l12.146,12.146l6.071-6.073l-6.071-6.073l6.071-6.072l12.147,12.146l-18.539,18.539
						l-24.612-24.612l30.685-30.683l28.126,28.127L362.782,368.847z"/>
					<polygon id="XMLID_612_" fill="#28170E" points="309.724,288.941 374.928,354.464 374.928,340.721 323.149,288.941 					"/>
					<polygon id="XMLID_611_" fill="#28170E" points="338.491,288.941 374.928,325.697 374.928,311.954 351.915,288.941 					"/>
					<polygon id="XMLID_610_" fill="#28170E" points="323.149,448.754 374.928,396.974 374.928,383.55 309.724,448.754 					"/>
					<polygon id="XMLID_609_" fill="#28170E" points="351.915,448.754 374.928,425.74 374.928,412.316 338.491,448.754 					"/>
					<polygon id="XMLID_608_" fill="#28170E" points="266.895,288.941 215.115,340.721 215.115,354.464 280.638,288.941 					"/>
					<polygon id="XMLID_607_" fill="#28170E" points="238.129,288.941 215.115,311.954 215.115,325.697 251.873,288.941 					"/>
					<polygon id="XMLID_606_" fill="#28170E" points="215.115,396.974 266.895,448.754 280.638,448.754 215.115,383.55 					"/>
					<polygon id="XMLID_605_" fill="#28170E" points="215.115,425.74 238.129,448.754 251.873,448.754 215.115,412.316 					"/>
				</g>
				<g id="XMLID_578_">
					<path id="XMLID_587_" fill="#28170E" d="M215.115,528.66l79.906,79.906l79.907-79.906l-79.907-79.906L215.115,528.66z
						 M362.782,528.66l-30.685,30.684l-24.609-24.611l18.538-18.539l12.145,12.147l-6.073,6.072l-6.071-6.072l-6.073,6.072
						l12.145,12.146l18.538-18.538l-24.609-24.611l-22.694,22.693l-9.909,9.909l-22.694,22.692l24.612,24.611l6.073-6.073
						l12.145-12.146l-12.145-12.146l-6.073,6.073l6.073,6.072l-6.073,6.073l-12.145-12.146l18.538-18.538l24.61,24.61
						l-30.683,30.685l-37.077-37.077l0,0L227.9,528.021l30.685-30.685l24.612,24.612l-18.539,18.538l-12.146-12.146l6.073-6.073
						l6.073,6.073l6.071-6.073l-12.145-12.146l-18.538,18.539l24.609,24.61l23.653-23.651l7.991-7.991l23.653-23.652l-24.612-24.611
						l-18.538,18.538l12.146,12.146l6.071-6.072l-6.071-6.073l6.071-6.072l12.147,12.146l-18.539,18.538l-24.612-24.611
						l30.685-30.684l28.126,28.128L362.782,528.66z"/>
					<polygon id="XMLID_586_" fill="#28170E" points="309.724,448.754 374.928,514.276 374.928,500.533 323.149,448.754 					"/>
					<polygon id="XMLID_585_" fill="#28170E" points="338.491,448.754 374.928,485.51 374.928,471.767 351.915,448.754 					"/>
					<polygon id="XMLID_584_" fill="#28170E" points="323.149,608.566 374.928,556.786 374.928,543.362 309.724,608.566 					"/>
					<polygon id="XMLID_583_" fill="#28170E" points="351.915,608.566 374.928,585.553 374.928,572.129 338.491,608.566 					"/>
					<polygon id="XMLID_582_" fill="#28170E" points="266.895,448.754 215.115,500.533 215.115,514.276 280.638,448.754 					"/>
					<polygon id="XMLID_581_" fill="#28170E" points="238.129,448.754 215.115,471.767 215.115,485.51 251.873,448.754 					"/>
					<polygon id="XMLID_580_" fill="#28170E" points="215.115,556.786 266.895,608.566 280.638,608.566 215.115,543.362 					"/>
					<polygon id="XMLID_579_" fill="#28170E" points="215.115,585.553 238.129,608.566 251.873,608.566 215.115,572.129 					"/>
				</g>
				<g id="XMLID_552_">
					<path id="XMLID_561_" fill="#28170E" d="M215.115,688.473l79.906,79.906l79.907-79.906l-79.907-79.906L215.115,688.473z
						 M362.782,688.473l-30.685,30.684l-24.609-24.611l18.538-18.538l12.145,12.146l-6.073,6.072l-6.071-6.072l-6.073,6.072
						l12.145,12.146l18.538-18.538l-24.609-24.611l-22.694,22.693l-9.909,9.909l-22.694,22.692l24.612,24.611l6.073-6.073
						l12.145-12.146l-12.145-12.146l-6.073,6.073l6.073,6.072l-6.073,6.073l-12.145-12.146l18.538-18.538l24.61,24.61
						l-30.683,30.685l-37.077-37.077l0,0L227.9,687.833l30.685-30.685l24.612,24.612l-18.539,18.538l-12.146-12.146l6.073-6.073
						l6.073,6.073l6.071-6.073l-12.145-12.146l-18.538,18.539l24.609,24.61l23.653-23.651l7.991-7.991l23.653-23.652l-24.612-24.611
						l-18.538,18.538l12.146,12.146l6.071-6.072l-6.071-6.073l6.071-6.072l12.147,12.146l-18.539,18.538l-24.612-24.611
						l30.685-30.684l28.126,28.128L362.782,688.473z"/>
					<polygon id="XMLID_560_" fill="#28170E" points="309.724,608.566 374.928,674.089 374.928,660.346 323.149,608.566 					"/>
					<polygon id="XMLID_559_" fill="#28170E" points="338.491,608.566 374.928,645.323 374.928,631.579 351.915,608.566 					"/>
					<polygon id="XMLID_558_" fill="#28170E" points="323.149,768.379 374.928,716.599 374.928,703.175 309.724,768.379 					"/>
					<polygon id="XMLID_557_" fill="#28170E" points="351.915,768.379 374.928,745.365 374.928,731.941 338.491,768.379 					"/>
					<polygon id="XMLID_556_" fill="#28170E" points="266.895,608.566 215.115,660.346 215.115,674.089 280.638,608.566 					"/>
					<polygon id="XMLID_555_" fill="#28170E" points="238.129,608.566 215.115,631.579 215.115,645.323 251.873,608.566 					"/>
					<polygon id="XMLID_554_" fill="#28170E" points="215.115,716.599 266.895,768.379 280.638,768.379 215.115,703.175 					"/>
					<polygon id="XMLID_553_" fill="#28170E" points="215.115,745.365 238.129,768.379 251.873,768.379 215.115,731.941 					"/>
				</g>
				<g id="XMLID_526_">
					<path id="XMLID_535_" fill="#28170E" d="M55.302,49.222l79.906,79.906l79.906-79.906l-79.906-79.906L55.302,49.222z
						 M202.97,49.222l-30.685,30.684l-24.61-24.611l18.539-18.538l12.145,12.146l-6.073,6.073l-6.071-6.073l-6.073,6.073
						l12.145,12.146l18.538-18.539l-24.609-24.61L143.52,46.665l-9.909,9.909l-22.694,22.693l24.612,24.612l6.073-6.073
						l12.145-12.146l-12.145-12.146l-6.073,6.073l6.073,6.073l-6.073,6.073l-12.145-12.146l18.538-18.538l24.61,24.611
						l-30.683,30.684L98.772,79.267l0,0L68.087,48.583l30.685-30.684l24.612,24.611l-18.539,18.539L92.699,48.902l6.073-6.073
						l6.073,6.073l6.071-6.073L98.772,30.684L80.234,49.222l24.611,24.611l23.651-23.652l7.991-7.991l23.653-23.652L135.529-6.073
						l-18.538,18.538l12.146,12.146l6.071-6.073l-6.071-6.073l6.071-6.073l12.146,12.146l-18.538,18.539l-24.612-24.611
						l30.685-30.684l28.127,28.127L202.97,49.222z"/>
					<polygon id="XMLID_534_" fill="#28170E" points="149.912,-30.684 215.115,34.839 215.115,21.095 163.337,-30.684 					"/>
					<polygon id="XMLID_533_" fill="#28170E" points="178.679,-30.684 215.115,6.073 215.115,-7.671 192.103,-30.684 					"/>
					<polygon id="XMLID_532_" fill="#28170E" points="163.337,129.128 215.115,77.349 215.115,63.925 149.912,129.128 					"/>
					<polygon id="XMLID_531_" fill="#28170E" points="192.103,129.128 215.115,106.115 215.115,92.691 178.679,129.128 					"/>
					<polygon id="XMLID_530_" fill="#28170E" points="107.082,-30.684 55.302,21.095 55.302,34.839 120.826,-30.684 					"/>
					<polygon id="XMLID_529_" fill="#28170E" points="78.316,-30.684 55.302,-7.671 55.302,6.073 92.061,-30.684 					"/>
					<polygon id="XMLID_528_" fill="#28170E" points="55.302,77.349 107.082,129.128 120.826,129.128 55.302,63.925 					"/>
					<polygon id="XMLID_527_" fill="#28170E" points="55.302,106.115 78.316,129.128 92.061,129.128 55.302,92.691 					"/>
				</g>
				<g id="XMLID_500_">
					<path id="XMLID_509_" fill="#28170E" d="M55.302,209.035l79.906,79.906l79.906-79.906l-79.906-79.906L55.302,209.035z
						 M202.97,209.035l-30.685,30.684l-24.61-24.611l18.539-18.538l12.145,12.146l-6.073,6.073l-6.071-6.073l-6.073,6.073
						l12.145,12.146l18.538-18.538l-24.609-24.611l-22.694,22.693l-9.909,9.909l-22.694,22.693l24.612,24.612l6.073-6.073
						l12.145-12.146l-12.145-12.146l-6.073,6.073l6.073,6.073l-6.073,6.073l-12.145-12.146l18.538-18.538l24.61,24.611
						l-30.683,30.684l-37.077-37.077l0,0l-30.685-30.684l30.685-30.684l24.612,24.611l-18.539,18.539l-12.146-12.146l6.073-6.073
						l6.073,6.073l6.071-6.073l-12.145-12.146l-18.538,18.538l24.611,24.611l23.651-23.652l7.991-7.991l23.653-23.652
						l-24.612-24.611l-18.538,18.538l12.146,12.146l6.071-6.073l-6.071-6.073l6.071-6.072l12.146,12.146l-18.538,18.539
						l-24.612-24.612l30.685-30.684l28.127,28.127L202.97,209.035z"/>
					<polygon id="XMLID_508_" fill="#28170E" points="149.912,129.128 215.115,194.652 215.115,180.908 163.337,129.128 					"/>
					<polygon id="XMLID_507_" fill="#28170E" points="178.679,129.128 215.115,165.885 215.115,152.141 192.103,129.128 					"/>
					<polygon id="XMLID_506_" fill="#28170E" points="163.337,288.941 215.115,237.162 215.115,223.738 149.912,288.941 					"/>
					<polygon id="XMLID_505_" fill="#28170E" points="192.103,288.941 215.115,265.928 215.115,252.503 178.679,288.941 					"/>
					<polygon id="XMLID_504_" fill="#28170E" points="107.082,129.128 55.302,180.908 55.302,194.652 120.826,129.128 					"/>
					<polygon id="XMLID_503_" fill="#28170E" points="78.316,129.128 55.302,152.141 55.302,165.885 92.061,129.128 					"/>
					<polygon id="XMLID_502_" fill="#28170E" points="55.302,237.162 107.082,288.941 120.826,288.941 55.302,223.738 					"/>
					<polygon id="XMLID_501_" fill="#28170E" points="55.302,265.928 78.316,288.941 92.061,288.941 55.302,252.503 					"/>
				</g>
				<g id="XMLID_474_">
					<path id="XMLID_483_" fill="#28170E" d="M55.302,368.847l79.906,79.907l79.906-79.907l-79.906-79.906L55.302,368.847z
						 M202.97,368.847l-30.685,30.684l-24.61-24.612l18.539-18.538l12.145,12.146l-6.073,6.073l-6.071-6.073l-6.073,6.073
						l12.145,12.146l18.538-18.538l-24.609-24.611L143.52,366.29l-9.909,9.909l-22.694,22.693l24.612,24.611l6.073-6.073
						l12.145-12.146l-12.145-12.146l-6.073,6.073l6.073,6.072l-6.073,6.073l-12.145-12.146l18.538-18.538l24.61,24.61
						l-30.683,30.685l-37.077-37.077l0,0l-30.685-30.684l30.685-30.684l24.612,24.611l-18.539,18.539l-12.146-12.146l6.073-6.073
						l6.073,6.073l6.071-6.073l-12.145-12.146l-18.538,18.538l24.611,24.611l23.651-23.652l7.991-7.991l23.653-23.652
						l-24.612-24.611l-18.538,18.538l12.146,12.146l6.071-6.073l-6.071-6.073l6.071-6.072l12.146,12.146l-18.538,18.539
						l-24.612-24.612l30.685-30.683l28.127,28.127L202.97,368.847z"/>
					<polygon id="XMLID_482_" fill="#28170E" points="149.912,288.941 215.115,354.464 215.115,340.721 163.337,288.941 					"/>
					<polygon id="XMLID_481_" fill="#28170E" points="178.679,288.941 215.115,325.697 215.115,311.954 192.103,288.941 					"/>
					<polygon id="XMLID_480_" fill="#28170E" points="163.337,448.754 215.115,396.974 215.115,383.55 149.912,448.754 					"/>
					<polygon id="XMLID_479_" fill="#28170E" points="192.103,448.754 215.115,425.74 215.115,412.316 178.679,448.754 					"/>
					<polygon id="XMLID_478_" fill="#28170E" points="107.082,288.941 55.302,340.721 55.302,354.464 120.826,288.941 					"/>
					<polygon id="XMLID_477_" fill="#28170E" points="78.316,288.941 55.302,311.954 55.302,325.697 92.061,288.941 					"/>
					<polygon id="XMLID_476_" fill="#28170E" points="55.302,396.974 107.082,448.754 120.826,448.754 55.302,383.55 					"/>
					<polygon id="XMLID_475_" fill="#28170E" points="55.302,425.74 78.316,448.754 92.061,448.754 55.302,412.316 					"/>
				</g>
				<g id="XMLID_448_">
					<path id="XMLID_457_" fill="#28170E" d="M55.302,528.66l79.906,79.906l79.906-79.906l-79.906-79.906L55.302,528.66z
						 M202.97,528.66l-30.685,30.684l-24.61-24.611l18.539-18.539l12.145,12.147l-6.073,6.072l-6.071-6.072l-6.073,6.072
						l12.145,12.146l18.538-18.538l-24.609-24.611l-22.694,22.693l-9.909,9.909l-22.694,22.692l24.612,24.611l6.073-6.073
						l12.145-12.146l-12.145-12.146l-6.073,6.073l6.073,6.072l-6.073,6.073l-12.145-12.146l18.538-18.538l24.61,24.61
						l-30.683,30.685l-37.077-37.077l0,0l-30.685-30.684l30.685-30.685l24.612,24.612l-18.539,18.538l-12.146-12.146l6.073-6.073
						l6.073,6.073l6.071-6.073l-12.145-12.146L80.234,528.66l24.611,24.61l23.651-23.651l7.991-7.991l23.653-23.652l-24.612-24.611
						l-18.538,18.538l12.146,12.146l6.071-6.072l-6.071-6.073l6.071-6.072l12.146,12.146l-18.538,18.538l-24.612-24.611
						l30.685-30.684l28.127,28.128L202.97,528.66z"/>
					<polygon id="XMLID_456_" fill="#28170E" points="149.912,448.754 215.115,514.276 215.115,500.533 163.337,448.754 					"/>
					<polygon id="XMLID_455_" fill="#28170E" points="178.679,448.754 215.115,485.51 215.115,471.767 192.103,448.754 					"/>
					<polygon id="XMLID_454_" fill="#28170E" points="163.337,608.566 215.115,556.786 215.115,543.362 149.912,608.566 					"/>
					<polygon id="XMLID_453_" fill="#28170E" points="192.103,608.566 215.115,585.553 215.115,572.129 178.679,608.566 					"/>
					<polygon id="XMLID_452_" fill="#28170E" points="107.082,448.754 55.302,500.533 55.302,514.276 120.826,448.754 					"/>
					<polygon id="XMLID_451_" fill="#28170E" points="78.316,448.754 55.302,471.767 55.302,485.51 92.061,448.754 					"/>
					<polygon id="XMLID_450_" fill="#28170E" points="55.302,556.786 107.082,608.566 120.826,608.566 55.302,543.362 					"/>
					<polygon id="XMLID_449_" fill="#28170E" points="55.302,585.553 78.316,608.566 92.061,608.566 55.302,572.129 					"/>
				</g>
				<g id="XMLID_422_">
					<path id="XMLID_431_" fill="#28170E" d="M55.302,688.473l79.906,79.906l79.906-79.906l-79.906-79.906L55.302,688.473z
						 M202.97,688.473l-30.685,30.684l-24.61-24.611l18.539-18.538l12.145,12.146l-6.073,6.072l-6.071-6.072l-6.073,6.072
						l12.145,12.146l18.538-18.538l-24.609-24.611l-22.694,22.693l-9.909,9.909l-22.694,22.692l24.612,24.611l6.073-6.073
						l12.145-12.146l-12.145-12.146l-6.073,6.073l6.073,6.072l-6.073,6.073l-12.145-12.146l18.538-18.538l24.61,24.61
						l-30.683,30.685l-37.077-37.077l0,0l-30.685-30.684l30.685-30.685l24.612,24.612l-18.539,18.538l-12.146-12.146l6.073-6.073
						l6.073,6.073l6.071-6.073l-12.145-12.146l-18.538,18.539l24.611,24.61l23.651-23.651l7.991-7.991l23.653-23.652l-24.612-24.611
						l-18.538,18.538l12.146,12.146l6.071-6.072l-6.071-6.073l6.071-6.072l12.146,12.146l-18.538,18.538l-24.612-24.611
						l30.685-30.684l28.127,28.128L202.97,688.473z"/>
					<polygon id="XMLID_430_" fill="#28170E" points="149.912,608.566 215.115,674.089 215.115,660.346 163.337,608.566 					"/>
					<polygon id="XMLID_429_" fill="#28170E" points="178.679,608.566 215.115,645.323 215.115,631.579 192.103,608.566 					"/>
					<polygon id="XMLID_428_" fill="#28170E" points="163.337,768.379 215.115,716.599 215.115,703.175 149.912,768.379 					"/>
					<polygon id="XMLID_427_" fill="#28170E" points="192.103,768.379 215.115,745.365 215.115,731.941 178.679,768.379 					"/>
					<polygon id="XMLID_426_" fill="#28170E" points="107.082,608.566 55.302,660.346 55.302,674.089 120.826,608.566 					"/>
					<polygon id="XMLID_425_" fill="#28170E" points="78.316,608.566 55.302,631.579 55.302,645.323 92.061,608.566 					"/>
					<polygon id="XMLID_424_" fill="#28170E" points="55.302,716.599 107.082,768.379 120.826,768.379 55.302,703.175 					"/>
					<polygon id="XMLID_423_" fill="#28170E" points="55.302,745.365 78.316,768.379 92.061,768.379 55.302,731.941 					"/>
				</g>
				<g id="XMLID_396_">
					<path id="XMLID_405_" fill="#28170E" d="M-104.509,49.222l79.906,79.906l79.905-79.906l-79.905-79.906L-104.509,49.222z
						 M43.158,49.222L12.473,79.906l-24.61-24.611L6.401,36.757l12.145,12.146l-6.073,6.073l-6.071-6.073l-6.073,6.073
						l12.145,12.146l18.538-18.539L6.401,23.972l-22.694,22.693l-9.909,9.909l-22.693,22.693l24.611,24.612l6.073-6.073
						l12.145-12.146L-18.21,73.514l-6.073,6.073l6.073,6.073l-6.073,6.073l-12.146-12.146l18.538-18.538L6.72,85.659l-31.323,31.324
						L-61.36,79.906l0,0l-30.684-30.684l30.684-30.684l24.611,24.611l-18.539,18.538l-12.146-12.146l6.073-6.073l6.073,6.073
						l6.073-6.073L-61.36,31.323l-18.538,18.538l24.611,24.611l23.653-23.652l7.99-7.991L0.008,19.177L-24.603-5.434l-18.538,18.538
						l12.146,12.146l6.073-6.073l-6.073-6.073l6.073-6.073l12.145,12.146l-17.897,17.899l-24.612-24.611l30.684-30.684L3.525,9.908
						L43.158,49.222z"/>
					<polygon id="XMLID_404_" fill="#28170E" points="-9.901,-30.684 55.302,34.839 55.302,21.095 3.525,-30.684 					"/>
					<polygon id="XMLID_403_" fill="#28170E" points="18.866,-30.684 55.302,6.073 55.302,-7.671 32.29,-30.684 					"/>
					<polygon id="XMLID_402_" fill="#28170E" points="3.525,129.128 55.302,77.349 55.302,63.925 -9.901,129.128 					"/>
					<polygon id="XMLID_401_" fill="#28170E" points="32.29,129.128 55.302,106.115 55.302,92.691 18.866,129.128 					"/>
					<polygon id="XMLID_400_" fill="#28170E" points="-52.73,-30.684 -104.509,21.095 -104.509,34.839 -38.987,-30.684 					"/>
					<polygon id="XMLID_399_" fill="#28170E" points="-81.497,-30.684 -104.509,-7.671 -104.509,6.073 -67.752,-30.684 					"/>
					<polygon id="XMLID_398_" fill="#28170E" points="-104.509,77.349 -52.73,129.128 -38.987,129.128 -104.509,63.925 					"/>
					<polygon id="XMLID_397_" fill="#28170E" points="-104.509,106.115 -81.497,129.128 -67.752,129.128 -104.509,92.691 					"/>
				</g>
				<g id="XMLID_370_">
					<path id="XMLID_379_" fill="#28170E" d="M-104.509,209.035l79.906,79.906l79.905-79.906l-79.905-79.906L-104.509,209.035z
						 M43.158,209.035l-30.685,30.684l-24.61-24.611l18.539-18.538l12.145,12.146l-6.073,6.073l-6.071-6.073l-6.073,6.073
						l12.145,12.146l18.538-18.538L6.401,183.785l-22.694,22.693l-9.909,9.909l-22.693,22.693l24.611,24.612l6.073-6.073
						l12.145-12.146l-12.145-12.146l-6.073,6.073l6.073,6.073l-6.073,6.073l-12.146-12.146l18.538-18.538L6.72,245.472
						l-31.323,31.324l-36.757-37.077l0,0l-30.684-30.684l30.684-30.684l24.611,24.611L-55.287,221.5l-12.146-12.146l6.073-6.073
						l6.073,6.073l6.073-6.073l-12.146-12.146l-18.538,18.538l24.611,24.611l23.653-23.652l7.99-7.991L0.008,178.99l-24.611-24.611
						l-18.538,18.538l12.146,12.146l6.073-6.073l-6.073-6.073l6.073-6.073l12.145,12.146l-17.897,17.899l-24.612-24.611
						l30.684-30.684l28.128,28.127L43.158,209.035z"/>
					<polygon id="XMLID_378_" fill="#28170E" points="-9.901,129.128 55.302,194.652 55.302,180.908 3.525,129.128 					"/>
					<polygon id="XMLID_377_" fill="#28170E" points="18.866,129.128 55.302,165.885 55.302,152.141 32.29,129.128 					"/>
					<polygon id="XMLID_376_" fill="#28170E" points="3.525,288.941 55.302,237.162 55.302,223.738 -9.901,288.941 					"/>
					<polygon id="XMLID_375_" fill="#28170E" points="32.29,288.941 55.302,265.928 55.302,252.503 18.866,288.941 					"/>
					<polygon id="XMLID_374_" fill="#28170E" points="-52.73,129.128 -104.509,180.908 -104.509,194.652 -38.987,129.128 					"/>
					<polygon id="XMLID_373_" fill="#28170E" points="-81.497,129.128 -104.509,152.141 -104.509,165.885 -67.752,129.128 					"/>
					<polygon id="XMLID_372_" fill="#28170E" points="-104.509,237.162 -52.73,288.941 -38.987,288.941 -104.509,223.738 					"/>
					<polygon id="XMLID_371_" fill="#28170E" points="-104.509,265.928 -81.497,288.941 -67.752,288.941 -104.509,252.503 					"/>
				</g>
				<g id="XMLID_344_">
					<path id="XMLID_353_" fill="#28170E" d="M-104.509,368.847l79.906,79.907l79.905-79.907l-79.905-79.906L-104.509,368.847z
						 M43.158,368.847l-30.685,30.684l-24.61-24.612l18.539-18.538l12.145,12.146l-6.073,6.073l-6.071-6.073l-6.073,6.073
						l12.145,12.146l18.538-18.538L6.401,343.597l-22.694,22.693l-9.909,9.909l-22.693,22.693l24.611,24.611l6.073-6.073
						l12.145-12.146l-12.145-12.146l-6.073,6.073l6.073,6.072l-6.073,6.073l-12.146-12.146l18.538-18.538l24.611,24.61
						l-30.683,30.685l-37.077-37.077l0,0l-30.684-30.684l30.684-30.684l24.611,24.611l-18.539,18.539l-12.146-12.146l6.073-6.073
						l6.073,6.073l6.073-6.073l-12.146-12.146l-18.538,18.538l24.611,24.611l23.652-23.652l7.991-7.991l23.653-23.652
						l-24.612-24.611l-18.538,18.538l12.146,12.146l6.072-6.073l-6.072-6.073l6.072-6.072l12.146,12.146l-18.538,18.539
						l-24.611-24.612l30.685-30.683l28.127,28.127L43.158,368.847z"/>
					<polygon id="XMLID_352_" fill="#28170E" points="-9.901,288.941 55.302,354.464 55.302,340.721 3.525,288.941 					"/>
					<polygon id="XMLID_351_" fill="#28170E" points="18.866,288.941 55.302,325.697 55.302,311.954 32.29,288.941 					"/>
					<polygon id="XMLID_350_" fill="#28170E" points="3.525,448.754 55.302,396.974 55.302,383.55 -9.901,448.754 					"/>
					<polygon id="XMLID_349_" fill="#28170E" points="32.29,448.754 55.302,425.74 55.302,412.316 18.866,448.754 					"/>
					<polygon id="XMLID_348_" fill="#28170E" points="-52.73,288.941 -104.509,340.721 -104.509,354.464 -38.987,288.941 					"/>
					<polygon id="XMLID_347_" fill="#28170E" points="-81.497,288.941 -104.509,311.954 -104.509,325.697 -67.752,288.941 					"/>
					<polygon id="XMLID_346_" fill="#28170E" points="-104.509,396.974 -52.73,448.754 -38.987,448.754 -104.509,383.55 					"/>
					<polygon id="XMLID_345_" fill="#28170E" points="-104.509,425.74 -81.497,448.754 -67.752,448.754 -104.509,412.316 					"/>
				</g>
				<g id="XMLID_318_">
					<path id="XMLID_327_" fill="#28170E" d="M-104.509,528.66l79.906,79.906l79.905-79.906l-79.905-79.906L-104.509,528.66z
						 M43.158,528.66l-30.685,30.684l-24.61-24.611l18.539-18.539l12.145,12.147l-6.073,6.072l-6.071-6.072l-6.073,6.072
						l12.145,12.146l18.538-18.538L6.401,503.409l-22.694,22.693l-9.909,9.909l-22.693,22.692l24.611,24.611l6.073-6.073
						l12.145-12.146l-12.145-12.146l-6.073,6.073l6.073,6.072l-6.073,6.073l-12.146-12.146l18.538-18.538l24.611,24.61
						l-30.683,30.685l-37.077-37.077l0,0l-30.684-30.684l30.684-30.685l24.611,24.612l-18.539,18.538l-12.146-12.146l6.073-6.073
						l6.073,6.073l6.073-6.073l-12.146-12.146l-18.538,18.539l24.611,24.61l23.652-23.651l7.991-7.991l23.653-23.652l-24.612-24.611
						l-18.538,18.538l12.146,12.146l6.072-6.072l-6.072-6.073l6.072-6.072l12.146,12.146l-18.538,18.538l-24.611-24.611
						l30.685-30.684l28.127,28.128L43.158,528.66z"/>
					<polygon id="XMLID_326_" fill="#28170E" points="-9.901,448.754 55.302,514.276 55.302,500.533 3.525,448.754 					"/>
					<polygon id="XMLID_325_" fill="#28170E" points="18.866,448.754 55.302,485.51 55.302,471.767 32.29,448.754 					"/>
					<polygon id="XMLID_324_" fill="#28170E" points="3.525,608.566 55.302,556.786 55.302,543.362 -9.901,608.566 					"/>
					<polygon id="XMLID_323_" fill="#28170E" points="32.29,608.566 55.302,585.553 55.302,572.129 18.866,608.566 					"/>
					<polygon id="XMLID_322_" fill="#28170E" points="-52.73,448.754 -104.509,500.533 -104.509,514.276 -38.987,448.754 					"/>
					<polygon id="XMLID_321_" fill="#28170E" points="-81.497,448.754 -104.509,471.767 -104.509,485.51 -67.752,448.754 					"/>
					<polygon id="XMLID_320_" fill="#28170E" points="-104.509,556.786 -52.73,608.566 -38.987,608.566 -104.509,543.362 					"/>
					<polygon id="XMLID_319_" fill="#28170E" points="-104.509,585.553 -81.497,608.566 -67.752,608.566 -104.509,572.129 					"/>
				</g>
				<g id="XMLID_292_">
					<path id="XMLID_301_" fill="#28170E" d="M-104.509,688.473l79.906,79.906l79.905-79.906l-79.905-79.906L-104.509,688.473z
						 M43.158,688.473l-30.685,30.684l-24.61-24.611l18.539-18.538l12.145,12.146l-6.073,6.072l-6.071-6.072l-6.073,6.072
						l12.145,12.146l18.538-18.538L6.401,663.222l-22.694,22.693l-9.909,9.909l-22.693,22.692l24.611,24.611l6.073-6.073
						l12.145-12.146l-12.145-12.146l-6.073,6.073l6.073,6.072l-6.073,6.073l-12.146-12.146l18.538-18.538l24.611,24.61
						l-30.683,30.685l-37.077-37.077l0,0l-30.684-30.684l30.684-30.685l24.611,24.612l-18.539,18.538l-12.146-12.146l6.073-6.073
						l6.073,6.073l6.073-6.073l-12.146-12.146l-18.538,18.539l24.611,24.61l23.652-23.651l7.991-7.991l23.653-23.652l-24.612-24.611
						l-18.538,18.538l12.146,12.146l6.072-6.072l-6.072-6.073l6.072-6.072l12.146,12.146l-18.538,18.538l-24.611-24.611
						l30.685-30.684l28.127,28.128L43.158,688.473z"/>
					<polygon id="XMLID_300_" fill="#28170E" points="-9.901,608.566 55.302,674.089 55.302,660.346 3.525,608.566 					"/>
					<polygon id="XMLID_299_" fill="#28170E" points="18.866,608.566 55.302,645.323 55.302,631.579 32.29,608.566 					"/>
					<polygon id="XMLID_298_" fill="#28170E" points="3.525,768.379 55.302,716.599 55.302,703.175 -9.901,768.379 					"/>
					<polygon id="XMLID_297_" fill="#28170E" points="32.29,768.379 55.302,745.365 55.302,731.941 18.866,768.379 					"/>
					<polygon id="XMLID_296_" fill="#28170E" points="-52.73,608.566 -104.509,660.346 -104.509,674.089 -38.987,608.566 					"/>
					<polygon id="XMLID_295_" fill="#28170E" points="-81.497,608.566 -104.509,631.579 -104.509,645.323 -67.752,608.566 					"/>
					<polygon id="XMLID_294_" fill="#28170E" points="-104.509,716.599 -52.73,768.379 -38.987,768.379 -104.509,703.175 					"/>
					<polygon id="XMLID_293_" fill="#28170E" points="-104.509,745.365 -81.497,768.379 -67.752,768.379 -104.509,731.941 					"/>
				</g>
				<g id="XMLID_266_">
					<path id="XMLID_275_" fill="#28170E" d="M-264.322,49.222l79.906,79.906l79.906-79.906l-79.906-79.906L-264.322,49.222z
						 M-116.655,49.222l-30.684,30.684l-24.611-24.611l18.538-18.538l12.146,12.146l-6.073,6.073l-6.073-6.073l-6.073,6.073
						l12.146,12.146l18.538-18.539l-24.611-24.61l-22.693,22.693l-9.909,9.909l-22.694,22.693l24.611,24.612l6.073-6.073
						l12.146-12.146l-12.146-12.146l-6.073,6.073l6.073,6.073l-6.073,6.073l-12.146-12.146l18.538-18.538l24.611,24.611
						l-31.323,31.324l-36.757-37.077l0,0l-30.684-30.684l30.684-30.684l24.611,24.611L-215.1,61.688l-12.146-12.146l6.073-6.073
						l6.073,6.073l6.073-6.073l-12.146-12.146l-18.538,18.538l24.611,24.611l23.652-23.652l7.991-7.991l23.652-23.652
						l-24.611-24.611l-18.538,18.538l12.146,12.146l6.073-6.073l-6.073-6.073l6.073-6.073l12.146,12.146l-17.898,17.899
						L-215.1,12.465l30.684-30.684l28.127,28.127L-116.655,49.222z"/>
					<polygon id="XMLID_274_" fill="#28170E" points="-169.713,-30.684 -104.509,34.839 -104.509,21.095 -156.289,-30.684 					"/>
					<polygon id="XMLID_273_" fill="#28170E" points="-140.947,-30.684 -104.509,6.073 -104.509,-7.671 -127.522,-30.684 					"/>
					<polygon id="XMLID_272_" fill="#28170E" points="-156.289,129.128 -104.509,77.349 -104.509,63.925 -169.713,129.128 					"/>
					<polygon id="XMLID_271_" fill="#28170E" points="-127.522,129.128 -104.509,106.115 -104.509,92.691 -140.947,129.128 					"/>
					<polygon id="XMLID_270_" fill="#28170E" points="-212.543,-30.684 -264.322,21.095 -264.322,34.839 -198.799,-30.684 					"/>
					<polygon id="XMLID_269_" fill="#28170E" points="-241.309,-30.684 -264.322,-7.671 -264.322,6.073 -227.565,-30.684 					"/>
					<polygon id="XMLID_268_" fill="#28170E" points="-264.322,77.349 -212.543,129.128 -198.799,129.128 -264.322,63.925 					"/>
					<polygon id="XMLID_267_" fill="#28170E" points="-264.322,106.115 -241.309,129.128 -227.565,129.128 -264.322,92.691 					"/>
				</g>
				<g id="XMLID_240_">
					<path id="XMLID_249_" fill="#28170E" d="M-264.322,209.035l79.906,79.906l79.906-79.906l-79.906-79.906L-264.322,209.035z
						 M-116.655,209.035l-30.684,30.684l-24.611-24.611l18.538-18.538l12.146,12.146l-6.073,6.073l-6.073-6.073l-6.073,6.073
						l12.146,12.146l18.538-18.538l-24.611-24.611l-22.693,22.693l-9.909,9.909l-22.694,22.693l24.611,24.612l6.073-6.073
						l12.146-12.146l-12.146-12.146l-6.073,6.073l6.073,6.073l-6.073,6.073l-12.146-12.146l18.538-18.538l24.611,24.611
						l-31.323,31.324l-36.757-37.077l0,0l-30.684-30.684l30.684-30.684l24.611,24.611L-215.1,221.5l-12.146-12.146l6.073-6.073
						l6.073,6.073l6.073-6.073l-12.146-12.146l-18.538,18.538l24.611,24.611l23.652-23.652l7.991-7.991l23.652-23.652
						l-24.611-24.611l-18.538,18.538l12.146,12.146l6.073-6.073l-6.073-6.073l6.073-6.073l12.146,12.146l-17.898,17.899
						l-24.611-24.611l30.684-30.684l28.127,28.127L-116.655,209.035z"/>
					<polygon id="XMLID_248_" fill="#28170E" points="-169.713,129.128 -104.509,194.652 -104.509,180.908 -156.289,129.128 					
						"/>
					<polygon id="XMLID_247_" fill="#28170E" points="-140.947,129.128 -104.509,165.885 -104.509,152.141 -127.522,129.128 					
						"/>
					<polygon id="XMLID_246_" fill="#28170E" points="-156.289,288.941 -104.509,237.162 -104.509,223.738 -169.713,288.941 					
						"/>
					<polygon id="XMLID_245_" fill="#28170E" points="-127.522,288.941 -104.509,265.928 -104.509,252.503 -140.947,288.941 					
						"/>
					<polygon id="XMLID_244_" fill="#28170E" points="-212.543,129.128 -264.322,180.908 -264.322,194.652 -198.799,129.128 					
						"/>
					<polygon id="XMLID_243_" fill="#28170E" points="-241.309,129.128 -264.322,152.141 -264.322,165.885 -227.565,129.128 					
						"/>
					<polygon id="XMLID_242_" fill="#28170E" points="-264.322,237.162 -212.543,288.941 -198.799,288.941 -264.322,223.738 					
						"/>
					<polygon id="XMLID_241_" fill="#28170E" points="-264.322,265.928 -241.309,288.941 -227.565,288.941 -264.322,252.503 					
						"/>
				</g>
				<g id="XMLID_214_">
					<path id="XMLID_223_" fill="#28170E" d="M-264.322,368.847l79.906,79.907l79.906-79.907l-79.906-79.906L-264.322,368.847z
						 M-116.655,368.847l-30.684,30.684l-24.611-24.612l18.538-18.538l12.146,12.146l-6.073,6.073l-6.073-6.073l-6.073,6.073
						l12.146,12.146l18.538-18.538l-24.611-24.611l-22.693,22.693l-9.909,9.909l-22.694,22.693l24.611,24.611l6.073-6.073
						l12.146-12.146l-12.146-12.146l-6.073,6.073l6.073,6.072l-6.073,6.073l-12.146-12.146l18.538-18.538l24.611,24.61
						l-30.684,30.685l-37.077-37.077l0,0l-30.684-30.684l30.684-30.684l24.611,24.611l-18.539,18.539l-12.146-12.146l6.073-6.073
						l6.073,6.073l6.073-6.073l-12.146-12.146l-18.538,18.538l24.611,24.611l23.652-23.652l7.991-7.991l23.652-23.652
						l-24.611-24.611l-18.538,18.538l12.146,12.146l6.073-6.073l-6.073-6.073l6.073-6.072l12.146,12.146l-18.538,18.539
						l-24.611-24.612l30.684-30.683l28.127,28.127L-116.655,368.847z"/>
					<polygon id="XMLID_222_" fill="#28170E" points="-169.713,288.941 -104.509,354.464 -104.509,340.721 -156.289,288.941 					
						"/>
					<polygon id="XMLID_221_" fill="#28170E" points="-140.947,288.941 -104.509,325.697 -104.509,311.954 -127.522,288.941 					
						"/>
					<polygon id="XMLID_220_" fill="#28170E" points="-156.289,448.754 -104.509,396.974 -104.509,383.55 -169.713,448.754 					"/>
					<polygon id="XMLID_219_" fill="#28170E" points="-127.522,448.754 -104.509,425.74 -104.509,412.316 -140.947,448.754 					"/>
					<polygon id="XMLID_218_" fill="#28170E" points="-212.543,288.941 -264.322,340.721 -264.322,354.464 -198.799,288.941 					
						"/>
					<polygon id="XMLID_217_" fill="#28170E" points="-241.309,288.941 -264.322,311.954 -264.322,325.697 -227.565,288.941 					
						"/>
					<polygon id="XMLID_216_" fill="#28170E" points="-264.322,396.974 -212.543,448.754 -198.799,448.754 -264.322,383.55 					"/>
					<polygon id="XMLID_215_" fill="#28170E" points="-264.322,425.74 -241.309,448.754 -227.565,448.754 -264.322,412.316 					"/>
				</g>
				<g id="XMLID_188_">
					<path id="XMLID_197_" fill="#28170E" d="M-264.322,528.66l79.906,79.906l79.906-79.906l-79.906-79.906L-264.322,528.66z
						 M-116.655,528.66l-30.684,30.684l-24.611-24.611l18.538-18.539l12.146,12.147l-6.073,6.072l-6.073-6.072l-6.073,6.072
						l12.146,12.146l18.538-18.538l-24.611-24.611l-22.693,22.693l-9.909,9.909l-22.694,22.692l24.611,24.611l6.073-6.073
						l12.146-12.146l-12.146-12.146l-6.073,6.073l6.073,6.072l-6.073,6.073l-12.146-12.146l18.538-18.538l24.611,24.61
						l-30.684,30.685l-37.077-37.077l0,0l-30.684-30.684l30.684-30.685l24.611,24.612l-18.539,18.538l-12.146-12.146l6.073-6.073
						l6.073,6.073l6.073-6.073l-12.146-12.146l-18.538,18.539l24.611,24.61l23.652-23.651l7.991-7.991l23.652-23.652l-24.611-24.611
						l-18.538,18.538l12.146,12.146l6.073-6.072l-6.073-6.073l6.073-6.072l12.146,12.146l-18.538,18.538l-24.611-24.611
						l30.684-30.684l28.127,28.128L-116.655,528.66z"/>
					<polygon id="XMLID_196_" fill="#28170E" points="-169.713,448.754 -104.509,514.276 -104.509,500.533 -156.289,448.754 					
						"/>
					<polygon id="XMLID_195_" fill="#28170E" points="-140.947,448.754 -104.509,485.51 -104.509,471.767 -127.522,448.754 					"/>
					<polygon id="XMLID_194_" fill="#28170E" points="-156.289,608.566 -104.509,556.786 -104.509,543.362 -169.713,608.566 					
						"/>
					<polygon id="XMLID_193_" fill="#28170E" points="-127.522,608.566 -104.509,585.553 -104.509,572.129 -140.947,608.566 					
						"/>
					<polygon id="XMLID_192_" fill="#28170E" points="-212.543,448.754 -264.322,500.533 -264.322,514.276 -198.799,448.754 					
						"/>
					<polygon id="XMLID_191_" fill="#28170E" points="-241.309,448.754 -264.322,471.767 -264.322,485.51 -227.565,448.754 					"/>
					<polygon id="XMLID_190_" fill="#28170E" points="-264.322,556.786 -212.543,608.566 -198.799,608.566 -264.322,543.362 					
						"/>
					<polygon id="XMLID_189_" fill="#28170E" points="-264.322,585.553 -241.309,608.566 -227.565,608.566 -264.322,572.129 					
						"/>
				</g>
				<g id="XMLID_162_">
					<path id="XMLID_171_" fill="#28170E" d="M-264.322,688.473l79.906,79.906l79.906-79.906l-79.906-79.906L-264.322,688.473z
						 M-116.655,688.473l-30.684,30.684l-24.611-24.611l18.538-18.538l12.146,12.146l-6.073,6.072l-6.073-6.072l-6.073,6.072
						l12.146,12.146l18.538-18.538l-24.611-24.611l-22.693,22.693l-9.909,9.909l-22.694,22.692l24.611,24.611l6.073-6.073
						l12.146-12.146l-12.146-12.146l-6.073,6.073l6.073,6.072l-6.073,6.073l-12.146-12.146l18.538-18.538l24.611,24.61
						l-30.684,30.685l-37.077-37.077l0,0l-30.684-30.684l30.684-30.685l24.611,24.612l-18.539,18.538l-12.146-12.146l6.073-6.073
						l6.073,6.073l6.073-6.073l-12.146-12.146l-18.538,18.539l24.611,24.61l23.652-23.651l7.991-7.991l23.652-23.652l-24.611-24.611
						l-18.538,18.538l12.146,12.146l6.073-6.072l-6.073-6.073l6.073-6.072l12.146,12.146l-18.538,18.538l-24.611-24.611
						l30.684-30.684l28.127,28.128L-116.655,688.473z"/>
					<polygon id="XMLID_170_" fill="#28170E" points="-169.713,608.566 -104.509,674.089 -104.509,660.346 -156.289,608.566 					
						"/>
					<polygon id="XMLID_169_" fill="#28170E" points="-140.947,608.566 -104.509,645.323 -104.509,631.579 -127.522,608.566 					
						"/>
					<polygon id="XMLID_168_" fill="#28170E" points="-156.289,768.379 -104.509,716.599 -104.509,703.175 -169.713,768.379 					
						"/>
					<polygon id="XMLID_167_" fill="#28170E" points="-127.522,768.379 -104.509,745.365 -104.509,731.941 -140.947,768.379 					
						"/>
					<polygon id="XMLID_166_" fill="#28170E" points="-212.543,608.566 -264.322,660.346 -264.322,674.089 -198.799,608.566 					
						"/>
					<polygon id="XMLID_165_" fill="#28170E" points="-241.309,608.566 -264.322,631.579 -264.322,645.323 -227.565,608.566 					
						"/>
					<polygon id="XMLID_164_" fill="#28170E" points="-264.322,716.599 -212.543,768.379 -198.799,768.379 -264.322,703.175 					
						"/>
					<polygon id="XMLID_163_" fill="#28170E" points="-264.322,745.365 -241.309,768.379 -227.565,768.379 -264.322,731.941 					
						"/>
				</g>
				<g id="XMLID_136_">
					<path id="XMLID_145_" fill="#28170E" d="M-424.134,49.222l79.906,79.906l79.906-79.906l-79.906-79.906L-424.134,49.222z
						 M-276.467,49.222l-30.684,30.684l-24.611-24.611l18.219-18.218l12.146,12.146l-6.073,6.073l-6.073-6.073l-6.073,6.073
						l12.146,12.146l18.538-18.539l-24.611-24.291l-22.693,22.693l-9.908,9.908l-22.694,22.693l24.611,24.611l6.073-6.073
						l12.466-12.146l-12.146-12.146l-6.073,6.072l6.073,6.073l-6.073,6.073l-12.146-12.146l18.538-18.538l24.611,24.611
						l-31.323,30.684l-37.077-37.077l0,0l-30.684-30.684l30.684-30.684l24.611,24.611l-18.539,18.538l-12.146-12.146l6.073-6.073
						l6.073,6.073l6.073-6.073l-12.146-12.146l-18.538,18.538l24.611,24.611l23.652-23.652l7.991-7.991l23.652-23.652
						l-24.611-24.611l-18.538,18.538l12.146,12.146l6.073-6.073l-6.073-6.073l6.073-6.073l12.146,12.146l-17.58,17.899
						l-24.611-24.611l30.684-30.684l28.127,28.127L-276.467,49.222z"/>
					<polygon id="XMLID_144_" fill="#28170E" points="-329.525,-30.684 -264.322,34.839 -264.322,21.095 -316.101,-30.684 					"/>
					<polygon id="XMLID_143_" fill="#28170E" points="-300.759,-30.684 -264.322,6.073 -264.322,-7.671 -287.335,-30.684 					"/>
					<polygon id="XMLID_142_" fill="#28170E" points="-316.101,129.128 -264.322,77.349 -264.322,63.925 -329.525,129.128 					"/>
					<polygon id="XMLID_141_" fill="#28170E" points="-287.335,129.128 -264.322,106.115 -264.322,92.691 -300.759,129.128 					"/>
					<polygon id="XMLID_140_" fill="#28170E" points="-372.355,-30.684 -424.134,21.095 -424.134,34.839 -358.611,-30.684 					"/>
					<polygon id="XMLID_139_" fill="#28170E" points="-401.122,-30.684 -424.134,-7.671 -424.134,6.073 -387.377,-30.684 					"/>
					<polygon id="XMLID_138_" fill="#28170E" points="-424.134,77.349 -372.355,129.128 -358.611,129.128 -424.134,63.925 					"/>
					<polygon id="XMLID_137_" fill="#28170E" points="-424.134,106.115 -401.122,129.128 -387.377,129.128 -424.134,92.691 					"/>
				</g>
				<g id="XMLID_110_">
					<path id="XMLID_119_" fill="#28170E" d="M-424.134,209.035l79.906,79.906l79.906-79.906l-79.906-79.906L-424.134,209.035z
						 M-276.467,209.035l-30.684,30.684l-24.611-24.611l18.219-18.218l12.146,12.146l-6.073,6.073l-6.073-6.073l-6.073,6.073
						l12.146,12.146l18.538-18.539l-24.611-24.611l-22.693,22.693l-9.908,9.908l-22.694,22.693l24.611,24.611l6.073-6.073
						l12.466-11.826l-12.146-12.146l-6.073,6.073l6.073,6.073l-6.073,6.073l-12.146-12.146l18.538-18.539l24.611,24.611
						l-31.323,30.684l-37.077-37.077l0,0l-30.684-30.684l30.684-30.684l24.611,24.611l-18.539,18.538l-12.146-12.146l6.073-6.073
						l6.073,6.073l6.073-6.073l-12.146-12.146l-18.538,18.538l24.611,24.611l23.652-23.652l7.991-7.991l23.652-23.652
						l-24.611-24.611l-18.538,18.538l12.146,12.146l6.073-6.073l-6.073-6.073l6.073-6.073l12.146,12.146l-17.58,17.899
						l-24.611-24.611l30.684-30.684l28.127,28.127L-276.467,209.035z"/>
					<polygon id="XMLID_118_" fill="#28170E" points="-329.525,129.128 -264.322,194.652 -264.322,180.908 -316.101,129.128 					
						"/>
					<polygon id="XMLID_117_" fill="#28170E" points="-300.759,129.128 -264.322,165.885 -264.322,152.141 -287.335,129.128 					
						"/>
					<polygon id="XMLID_116_" fill="#28170E" points="-316.101,288.941 -264.322,237.162 -264.322,223.738 -329.525,288.941 					
						"/>
					<polygon id="XMLID_115_" fill="#28170E" points="-287.335,288.941 -264.322,265.928 -264.322,252.503 -300.759,288.941 					
						"/>
					<polygon id="XMLID_114_" fill="#28170E" points="-372.355,129.128 -424.134,180.908 -424.134,194.652 -358.611,129.128 					
						"/>
					<polygon id="XMLID_113_" fill="#28170E" points="-401.122,129.128 -424.134,152.141 -424.134,165.885 -387.377,129.128 					
						"/>
					<polygon id="XMLID_112_" fill="#28170E" points="-424.134,237.162 -372.355,288.941 -358.611,288.941 -424.134,223.738 					
						"/>
					<polygon id="XMLID_111_" fill="#28170E" points="-424.134,265.928 -401.122,288.941 -387.377,288.941 -424.134,252.503 					
						"/>
				</g>
				<g id="XMLID_84_">
					<path id="XMLID_93_" fill="#28170E" d="M-424.134,368.847l79.906,79.907l79.906-79.907l-79.906-79.906L-424.134,368.847z
						 M-276.467,368.847l-30.684,30.684l-24.611-24.612l18.538-18.538l12.146,12.146l-6.073,6.073l-6.073-6.073l-6.073,6.073
						l12.146,12.146l18.538-18.538l-24.611-24.611l-22.693,22.693l-9.909,9.909l-22.694,22.693l24.611,24.611l6.073-6.073
						l12.146-12.146l-12.146-12.146l-6.073,6.073l6.073,6.072l-6.073,6.073l-12.146-12.146l18.538-18.538l24.611,24.61
						l-30.684,30.685l-37.077-37.077l0,0l-30.684-30.684l30.684-30.684l24.611,24.611l-18.539,18.539l-12.146-12.146l6.073-6.073
						l6.073,6.073l6.073-6.073l-12.146-12.146l-18.539,18.538l24.611,24.611l23.652-23.652l7.991-7.991l23.652-23.652
						l-24.611-24.611l-18.538,18.538l12.146,12.146l6.073-6.073l-6.073-6.073l6.073-6.072l12.146,12.146l-18.538,18.539
						l-24.611-24.612l30.684-30.683l28.127,28.127L-276.467,368.847z"/>
					<polygon id="XMLID_92_" fill="#28170E" points="-329.525,288.941 -264.322,354.464 -264.322,340.721 -316.101,288.941 					"/>
					<polygon id="XMLID_91_" fill="#28170E" points="-300.759,288.941 -264.322,325.697 -264.322,311.954 -287.335,288.941 					"/>
					<polygon id="XMLID_90_" fill="#28170E" points="-316.101,448.754 -264.322,396.974 -264.322,383.55 -329.525,448.754 					"/>
					<polygon id="XMLID_89_" fill="#28170E" points="-287.335,448.754 -264.322,425.74 -264.322,412.316 -300.759,448.754 					"/>
					<polygon id="XMLID_88_" fill="#28170E" points="-372.355,288.941 -424.134,340.721 -424.134,354.464 -358.611,288.941 					"/>
					<polygon id="XMLID_87_" fill="#28170E" points="-401.122,288.941 -424.134,311.954 -424.134,325.697 -387.377,288.941 					"/>
					<polygon id="XMLID_86_" fill="#28170E" points="-424.134,396.974 -372.355,448.754 -358.611,448.754 -424.134,383.55 					"/>
					<polygon id="XMLID_85_" fill="#28170E" points="-424.134,425.74 -401.122,448.754 -387.377,448.754 -424.134,412.316 					"/>
				</g>
				<g id="XMLID_58_">
					<path id="XMLID_67_" fill="#28170E" d="M-424.134,528.66l79.906,79.906l79.906-79.906l-79.906-79.906L-424.134,528.66z
						 M-276.467,528.66l-30.684,30.684l-24.611-24.611l18.538-18.539l12.146,12.147l-6.073,6.072l-6.073-6.072l-6.073,6.072
						l12.146,12.146l18.538-18.538l-24.611-24.611l-22.693,22.693l-9.909,9.909l-22.694,22.692l24.611,24.611l6.073-6.073
						l12.146-12.146l-12.146-12.146l-6.073,6.073l6.073,6.072l-6.073,6.073l-12.146-12.146l18.538-18.538l24.611,24.61
						l-30.684,30.685l-37.077-37.077l0,0l-30.684-30.684l30.684-30.685l24.611,24.612l-18.539,18.538l-12.146-12.146l6.073-6.073
						l6.073,6.073l6.073-6.073l-12.146-12.146l-18.539,18.539l24.611,24.61l23.652-23.651l7.991-7.991l23.652-23.652l-24.611-24.611
						l-18.538,18.538l12.146,12.146l6.073-6.072l-6.073-6.073l6.073-6.072l12.146,12.146l-18.538,18.538l-24.611-24.611
						l30.684-30.684l28.127,28.128L-276.467,528.66z"/>
					<polygon id="XMLID_66_" fill="#28170E" points="-329.525,448.754 -264.322,514.276 -264.322,500.533 -316.101,448.754 					"/>
					<polygon id="XMLID_65_" fill="#28170E" points="-300.759,448.754 -264.322,485.51 -264.322,471.767 -287.335,448.754 					"/>
					<polygon id="XMLID_64_" fill="#28170E" points="-316.101,608.566 -264.322,556.786 -264.322,543.362 -329.525,608.566 					"/>
					<polygon id="XMLID_63_" fill="#28170E" points="-287.335,608.566 -264.322,585.553 -264.322,572.129 -300.759,608.566 					"/>
					<polygon id="XMLID_62_" fill="#28170E" points="-372.355,448.754 -424.134,500.533 -424.134,514.276 -358.611,448.754 					"/>
					<polygon id="XMLID_61_" fill="#28170E" points="-401.122,448.754 -424.134,471.767 -424.134,485.51 -387.377,448.754 					"/>
					<polygon id="XMLID_60_" fill="#28170E" points="-424.134,556.786 -372.355,608.566 -358.611,608.566 -424.134,543.362 					"/>
					<polygon id="XMLID_59_" fill="#28170E" points="-424.134,585.553 -401.122,608.566 -387.377,608.566 -424.134,572.129 					"/>
				</g>
				<g id="XMLID_32_">
					<path id="XMLID_41_" fill="#28170E" d="M-424.134,688.473l79.906,79.906l79.906-79.906l-79.906-79.906L-424.134,688.473z
						 M-276.467,688.473l-30.684,30.684l-24.611-24.611l18.538-18.538l12.146,12.146l-6.073,6.072l-6.073-6.072l-6.073,6.072
						l12.146,12.146l18.538-18.538l-24.611-24.611l-22.693,22.693l-9.909,9.909l-22.694,22.692l24.611,24.611l6.073-6.073
						l12.146-12.146l-12.146-12.146l-6.073,6.073l6.073,6.072l-6.073,6.073l-12.146-12.146l18.538-18.538l24.611,24.61
						l-30.684,30.685l-37.077-37.077l0,0l-30.684-30.684l30.684-30.685l24.611,24.612l-18.539,18.538l-12.146-12.146l6.073-6.073
						l6.073,6.073l6.073-6.073l-12.146-12.146l-18.539,18.539l24.611,24.61l23.652-23.651l7.991-7.991l23.652-23.652l-24.611-24.611
						l-18.538,18.538l12.146,12.146l6.073-6.072l-6.073-6.073l6.073-6.072l12.146,12.146l-18.538,18.538l-24.611-24.611
						l30.684-30.684l28.127,28.128L-276.467,688.473z"/>
					<polygon id="XMLID_40_" fill="#28170E" points="-329.525,608.566 -264.322,674.089 -264.322,660.346 -316.101,608.566 					"/>
					<polygon id="XMLID_39_" fill="#28170E" points="-300.759,608.566 -264.322,645.323 -264.322,631.579 -287.335,608.566 					"/>
					<polygon id="XMLID_38_" fill="#28170E" points="-316.101,768.379 -264.322,716.599 -264.322,703.175 -329.525,768.379 					"/>
					<polygon id="XMLID_37_" fill="#28170E" points="-287.335,768.379 -264.322,745.365 -264.322,731.941 -300.759,768.379 					"/>
					<polygon id="XMLID_36_" fill="#28170E" points="-372.355,608.566 -424.134,660.346 -424.134,674.089 -358.611,608.566 					"/>
					<polygon id="XMLID_35_" fill="#28170E" points="-401.122,608.566 -424.134,631.579 -424.134,645.323 -387.377,608.566 					"/>
					<polygon id="XMLID_34_" fill="#28170E" points="-424.134,716.599 -372.355,768.379 -358.611,768.379 -424.134,703.175 					"/>
					<polygon id="XMLID_33_" fill="#28170E" points="-424.134,745.365 -401.122,768.379 -387.377,768.379 -424.134,731.941 					"/>
				</g>
			</g>
		</g>
	</g>
</g>
<g id="XMLID_3_">
	<g>
		<defs>
			<rect id="SVGID_3_" x="305.25" width="639.25" height="639.25"/>
		</defs>
		<clipPath id="SVGID_4_">
			<use xlink:href="#SVGID_3_"  overflow="visible"/>
		</clipPath>
		<g id="XMLID_6_" clip-path="url(#SVGID_4_)">
			<g id="XMLID_7_">
				<g id="XMLID_388_">
					<path id="XMLID_407_" fill="#28170E" d="M854.365,49.222l79.906,79.906l79.906-79.906l-79.906-79.906L854.365,49.222z
						 M1002.033,49.222l-30.686,30.684l-24.609-24.611l18.538-18.538l12.145,12.146l-6.073,6.073l-6.071-6.073l-6.073,6.073
						l12.145,12.146l18.538-18.539l-24.609-24.61l-22.694,22.693l-9.908,9.909l-22.694,22.693l24.612,24.612l6.073-6.073
						l12.145-12.146l-12.145-12.146l-6.073,6.073l6.073,6.073l-6.073,6.073l-12.146-12.146l18.539-18.538l24.609,24.611
						l-30.683,30.684l-37.077-37.077l0,0L867.15,48.583l30.685-30.684l24.611,24.611l-18.538,18.539l-12.146-12.146l6.073-6.073
						l6.073,6.073l6.071-6.073l-12.145-12.146l-18.538,18.538l24.609,24.611l23.653-23.652l7.99-7.991l23.653-23.652L934.592-6.073
						l-18.539,18.538l12.146,12.146l6.072-6.073l-6.072-6.073l6.072-6.073l12.146,12.146L927.88,37.077l-24.612-24.611
						l30.686-30.684L962.08,9.908L1002.033,49.222z"/>
					<polygon id="XMLID_406_" fill="#28170E" points="948.974,-30.684 1014.178,34.839 1014.178,21.095 962.399,-30.684 					"/>
					<polygon id="XMLID_395_" fill="#28170E" points="977.741,-30.684 1014.178,6.073 1014.178,-7.671 991.165,-30.684 					"/>
					<polygon id="XMLID_394_" fill="#28170E" points="962.399,129.128 1014.178,77.349 1014.178,63.925 948.974,129.128 					"/>
					<polygon id="XMLID_393_" fill="#28170E" points="991.165,129.128 1014.178,106.115 1014.178,92.691 977.741,129.128 					"/>
					<polygon id="XMLID_392_" fill="#28170E" points="906.145,-30.684 854.365,21.095 854.365,34.839 919.889,-30.684 					"/>
					<polygon id="XMLID_391_" fill="#28170E" points="877.379,-30.684 854.365,-7.671 854.365,6.073 891.123,-30.684 					"/>
					<polygon id="XMLID_390_" fill="#28170E" points="854.365,77.349 906.145,129.128 919.889,129.128 854.365,63.925 					"/>
					<polygon id="XMLID_389_" fill="#28170E" points="854.365,106.115 877.379,129.128 891.123,129.128 854.365,92.691 					"/>
				</g>
				<g id="XMLID_368_">
					<path id="XMLID_387_" fill="#28170E" d="M854.365,209.035l79.906,79.906l79.906-79.906l-79.906-79.906L854.365,209.035z
						 M1002.033,209.035l-30.686,30.684l-24.609-24.611l18.538-18.538l12.145,12.146l-6.073,6.073l-6.071-6.073l-6.073,6.073
						l12.145,12.146l18.538-18.538l-24.609-24.611l-22.694,22.693l-9.908,9.909l-22.694,22.693l24.612,24.612l6.073-6.073
						l12.145-12.146l-12.145-12.146l-6.073,6.073l6.073,6.073l-6.073,6.073l-12.146-12.146l18.539-18.538l24.609,24.611
						l-30.683,30.684l-37.077-37.077l0,0l-30.685-30.684l30.685-30.684l24.611,24.611l-18.538,18.539l-12.146-12.146l6.073-6.073
						l6.073,6.073l6.071-6.073l-12.145-12.146l-18.538,18.538l24.609,24.611l23.653-23.652l7.99-7.991l23.653-23.652l-24.611-24.611
						l-18.539,18.538l12.146,12.146l6.072-6.073l-6.072-6.073l6.072-6.072l12.146,12.146l-18.538,18.539l-24.612-24.612
						l30.686-30.684l28.127,28.127L1002.033,209.035z"/>
					<polygon id="XMLID_386_" fill="#28170E" points="948.974,129.128 1014.178,194.652 1014.178,180.908 962.399,129.128 					"/>
					<polygon id="XMLID_385_" fill="#28170E" points="977.741,129.128 1014.178,165.885 1014.178,152.141 991.165,129.128 					"/>
					<polygon id="XMLID_384_" fill="#28170E" points="962.399,288.941 1014.178,237.162 1014.178,223.738 948.974,288.941 					"/>
					<polygon id="XMLID_383_" fill="#28170E" points="991.165,288.941 1014.178,265.928 1014.178,252.503 977.741,288.941 					"/>
					<polygon id="XMLID_382_" fill="#28170E" points="906.145,129.128 854.365,180.908 854.365,194.652 919.889,129.128 					"/>
					<polygon id="XMLID_381_" fill="#28170E" points="877.379,129.128 854.365,152.141 854.365,165.885 891.123,129.128 					"/>
					<polygon id="XMLID_380_" fill="#28170E" points="854.365,237.162 906.145,288.941 919.889,288.941 854.365,223.738 					"/>
					<polygon id="XMLID_369_" fill="#28170E" points="854.365,265.928 877.379,288.941 891.123,288.941 854.365,252.503 					"/>
				</g>
				<g id="XMLID_358_">
					<path id="XMLID_367_" fill="#28170E" d="M854.365,368.847l79.906,79.907l79.906-79.907l-79.906-79.906L854.365,368.847z
						 M1002.033,368.847l-30.686,30.684l-24.609-24.612l18.538-18.538l12.145,12.146l-6.073,6.073l-6.071-6.073l-6.073,6.073
						l12.145,12.146l18.538-18.538l-24.609-24.611l-22.694,22.693l-9.908,9.909l-22.694,22.693l24.612,24.611l6.073-6.073
						l12.145-12.146l-12.145-12.146l-6.073,6.073l6.073,6.072l-6.073,6.073l-12.146-12.146l18.539-18.538l24.609,24.61
						l-30.683,30.685l-37.077-37.077l0,0l-30.685-30.684l30.685-30.684l24.611,24.611l-18.538,18.539l-12.146-12.146l6.073-6.073
						l6.073,6.073l6.071-6.073l-12.145-12.146l-18.538,18.538l24.609,24.611l23.653-23.652l7.99-7.991l23.653-23.652l-24.611-24.611
						l-18.539,18.538l12.146,12.146l6.072-6.073l-6.072-6.073l6.072-6.072l12.146,12.146l-18.538,18.539l-24.612-24.612
						l30.686-30.683l28.127,28.127L1002.033,368.847z"/>
					<polygon id="XMLID_366_" fill="#28170E" points="948.974,288.941 1014.178,354.464 1014.178,340.721 962.399,288.941 					"/>
					<polygon id="XMLID_365_" fill="#28170E" points="977.741,288.941 1014.178,325.697 1014.178,311.954 991.165,288.941 					"/>
					<polygon id="XMLID_364_" fill="#28170E" points="962.399,448.754 1014.178,396.974 1014.178,383.55 948.974,448.754 					"/>
					<polygon id="XMLID_363_" fill="#28170E" points="991.165,448.754 1014.178,425.74 1014.178,412.316 977.741,448.754 					"/>
					<polygon id="XMLID_362_" fill="#28170E" points="906.145,288.941 854.365,340.721 854.365,354.464 919.889,288.941 					"/>
					<polygon id="XMLID_361_" fill="#28170E" points="877.379,288.941 854.365,311.954 854.365,325.697 891.123,288.941 					"/>
					<polygon id="XMLID_360_" fill="#28170E" points="854.365,396.974 906.145,448.754 919.889,448.754 854.365,383.55 					"/>
					<polygon id="XMLID_359_" fill="#28170E" points="854.365,425.74 877.379,448.754 891.123,448.754 854.365,412.316 					"/>
				</g>
				<g id="XMLID_338_">
					<path id="XMLID_357_" fill="#28170E" d="M854.365,528.66l79.906,79.906l79.906-79.906l-79.906-79.906L854.365,528.66z
						 M1002.033,528.66l-30.686,30.684l-24.609-24.611l18.538-18.539l12.145,12.147l-6.073,6.072l-6.071-6.072l-6.073,6.072
						l12.145,12.146l18.538-18.538l-24.609-24.611l-22.694,22.693l-9.908,9.909l-22.694,22.692l24.612,24.611l6.073-6.073
						l12.145-12.146l-12.145-12.146l-6.073,6.073l6.073,6.072l-6.073,6.073l-12.146-12.146l18.539-18.538l24.609,24.61
						l-30.683,30.685l-37.077-37.077l0,0l-30.685-30.684l30.685-30.685l24.611,24.612l-18.538,18.538l-12.146-12.146l6.073-6.073
						l6.073,6.073l6.071-6.073l-12.145-12.146l-18.538,18.539l24.609,24.61l23.653-23.651l7.99-7.991l23.653-23.652l-24.611-24.611
						l-18.539,18.538l12.146,12.146l6.072-6.072l-6.072-6.073l6.072-6.072l12.146,12.146l-18.538,18.538l-24.612-24.611
						l30.686-30.684l28.127,28.128L1002.033,528.66z"/>
					<polygon id="XMLID_356_" fill="#28170E" points="948.974,448.754 1014.178,514.276 1014.178,500.533 962.399,448.754 					"/>
					<polygon id="XMLID_355_" fill="#28170E" points="977.741,448.754 1014.178,485.51 1014.178,471.767 991.165,448.754 					"/>
					<polygon id="XMLID_354_" fill="#28170E" points="962.399,608.566 1014.178,556.786 1014.178,543.362 948.974,608.566 					"/>
					<polygon id="XMLID_343_" fill="#28170E" points="991.165,608.566 1014.178,585.553 1014.178,572.129 977.741,608.566 					"/>
					<polygon id="XMLID_342_" fill="#28170E" points="906.145,448.754 854.365,500.533 854.365,514.276 919.889,448.754 					"/>
					<polygon id="XMLID_341_" fill="#28170E" points="877.379,448.754 854.365,471.767 854.365,485.51 891.123,448.754 					"/>
					<polygon id="XMLID_340_" fill="#28170E" points="854.365,556.786 906.145,608.566 919.889,608.566 854.365,543.362 					"/>
					<polygon id="XMLID_339_" fill="#28170E" points="854.365,585.553 877.379,608.566 891.123,608.566 854.365,572.129 					"/>
				</g>
				<g id="XMLID_328_">
					<path id="XMLID_337_" fill="#28170E" d="M854.365,688.473l79.906,79.906l79.906-79.906l-79.906-79.906L854.365,688.473z
						 M1002.033,688.473l-30.686,30.684l-24.609-24.611l18.538-18.538l12.145,12.146l-6.073,6.072l-6.071-6.072l-6.073,6.072
						l12.145,12.146l18.538-18.538l-24.609-24.611l-22.694,22.693l-9.908,9.909l-22.694,22.692l24.612,24.611l6.073-6.073
						l12.145-12.146l-12.145-12.146l-6.073,6.073l6.073,6.072l-6.073,6.073l-12.146-12.146l18.539-18.538l24.609,24.61
						l-30.683,30.685l-37.077-37.077l0,0l-30.685-30.684l30.685-30.685l24.611,24.612l-18.538,18.538l-12.146-12.146l6.073-6.073
						l6.073,6.073l6.071-6.073l-12.145-12.146l-18.538,18.539l24.609,24.61l23.653-23.651l7.99-7.991l23.653-23.652l-24.611-24.611
						l-18.539,18.538l12.146,12.146l6.072-6.072l-6.072-6.073l6.072-6.072l12.146,12.146l-18.538,18.538l-24.612-24.611
						l30.686-30.684l28.127,28.128L1002.033,688.473z"/>
					<polygon id="XMLID_336_" fill="#28170E" points="948.974,608.566 1014.178,674.089 1014.178,660.346 962.399,608.566 					"/>
					<polygon id="XMLID_335_" fill="#28170E" points="977.741,608.566 1014.178,645.323 1014.178,631.579 991.165,608.566 					"/>
					<polygon id="XMLID_334_" fill="#28170E" points="962.399,768.379 1014.178,716.599 1014.178,703.175 948.974,768.379 					"/>
					<polygon id="XMLID_333_" fill="#28170E" points="991.165,768.379 1014.178,745.365 1014.178,731.941 977.741,768.379 					"/>
					<polygon id="XMLID_332_" fill="#28170E" points="906.145,608.566 854.365,660.346 854.365,674.089 919.889,608.566 					"/>
					<polygon id="XMLID_331_" fill="#28170E" points="877.379,608.566 854.365,631.579 854.365,645.323 891.123,608.566 					"/>
					<polygon id="XMLID_330_" fill="#28170E" points="854.365,716.599 906.145,768.379 919.889,768.379 854.365,703.175 					"/>
					<polygon id="XMLID_329_" fill="#28170E" points="854.365,745.365 877.379,768.379 891.123,768.379 854.365,731.941 					"/>
				</g>
				<g id="XMLID_308_">
					<path id="XMLID_317_" fill="#28170E" d="M694.553,49.222l79.906,79.906l79.906-79.906l-79.906-79.906L694.553,49.222z
						 M842.221,49.222l-30.686,30.684l-24.609-24.611l18.538-18.538l12.145,12.146l-6.073,6.073l-6.071-6.073l-6.073,6.073
						l12.145,12.146l18.538-18.539l-24.609-24.61L782.77,46.665l-9.908,9.909l-22.694,22.693l24.612,24.612l6.073-6.073
						l12.145-12.146l-12.145-12.146l-6.073,6.073l6.073,6.073l-6.073,6.073l-12.146-12.146l18.539-18.538l24.609,24.611
						L775.1,116.343l-37.077-37.077l0,0l-30.685-30.684l30.685-30.684l24.611,24.611l-18.538,18.539l-12.146-12.146l6.073-6.073
						l6.073,6.073l6.071-6.073l-12.145-12.146l-18.538,18.538l24.611,24.611l23.651-23.652l7.99-7.991l23.653-23.652L774.779-6.073
						L756.24,12.465l12.146,12.146l6.072-6.073l-6.072-6.073l6.072-6.073l12.146,12.146l-18.538,18.539l-24.612-24.611
						l30.686-30.684l28.127,28.127L842.221,49.222z"/>
					<polygon id="XMLID_316_" fill="#28170E" points="789.161,-30.684 854.365,34.839 854.365,21.095 802.587,-30.684 					"/>
					<polygon id="XMLID_315_" fill="#28170E" points="817.929,-30.684 854.365,6.073 854.365,-7.671 831.353,-30.684 					"/>
					<polygon id="XMLID_314_" fill="#28170E" points="802.587,129.128 854.365,77.349 854.365,63.925 789.161,129.128 					"/>
					<polygon id="XMLID_313_" fill="#28170E" points="831.353,129.128 854.365,106.115 854.365,92.691 817.929,129.128 					"/>
					<polygon id="XMLID_312_" fill="#28170E" points="746.332,-30.684 694.553,21.095 694.553,34.839 760.076,-30.684 					"/>
					<polygon id="XMLID_311_" fill="#28170E" points="717.566,-30.684 694.553,-7.671 694.553,6.073 731.311,-30.684 					"/>
					<polygon id="XMLID_310_" fill="#28170E" points="694.553,77.349 746.332,129.128 760.076,129.128 694.553,63.925 					"/>
					<polygon id="XMLID_309_" fill="#28170E" points="694.553,106.115 717.566,129.128 731.311,129.128 694.553,92.691 					"/>
				</g>
				<g id="XMLID_288_">
					<path id="XMLID_307_" fill="#28170E" d="M694.553,209.035l79.906,79.906l79.906-79.906l-79.906-79.906L694.553,209.035z
						 M842.221,209.035l-30.686,30.684l-24.609-24.611l18.538-18.538l12.145,12.146l-6.073,6.073l-6.071-6.073l-6.073,6.073
						l12.145,12.146l18.538-18.538l-24.609-24.611l-22.694,22.693l-9.908,9.909l-22.694,22.693l24.612,24.612l6.073-6.073
						l12.145-12.146l-12.145-12.146l-6.073,6.073l6.073,6.073l-6.073,6.073l-12.146-12.146l18.539-18.538l24.609,24.611
						L775.1,276.156l-37.077-37.077l0,0l-30.685-30.684l30.685-30.684l24.611,24.611l-18.538,18.539l-12.146-12.146l6.073-6.073
						l6.073,6.073l6.071-6.073l-12.145-12.146l-18.538,18.538l24.611,24.611l23.651-23.652l7.99-7.991l23.653-23.652l-24.611-24.611
						l-18.539,18.538l12.146,12.146l6.072-6.073l-6.072-6.073l6.072-6.072l12.146,12.146l-18.538,18.539l-24.612-24.612
						l30.686-30.684l28.127,28.127L842.221,209.035z"/>
					<polygon id="XMLID_306_" fill="#28170E" points="789.161,129.128 854.365,194.652 854.365,180.908 802.587,129.128 					"/>
					<polygon id="XMLID_305_" fill="#28170E" points="817.929,129.128 854.365,165.885 854.365,152.141 831.353,129.128 					"/>
					<polygon id="XMLID_304_" fill="#28170E" points="802.587,288.941 854.365,237.162 854.365,223.738 789.161,288.941 					"/>
					<polygon id="XMLID_303_" fill="#28170E" points="831.353,288.941 854.365,265.928 854.365,252.503 817.929,288.941 					"/>
					<polygon id="XMLID_302_" fill="#28170E" points="746.332,129.128 694.553,180.908 694.553,194.652 760.076,129.128 					"/>
					<polygon id="XMLID_291_" fill="#28170E" points="717.566,129.128 694.553,152.141 694.553,165.885 731.311,129.128 					"/>
					<polygon id="XMLID_290_" fill="#28170E" points="694.553,237.162 746.332,288.941 760.076,288.941 694.553,223.738 					"/>
					<polygon id="XMLID_289_" fill="#28170E" points="694.553,265.928 717.566,288.941 731.311,288.941 694.553,252.503 					"/>
				</g>
				<g id="XMLID_278_">
					<path id="XMLID_287_" fill="#28170E" d="M694.553,368.847l79.906,79.907l79.906-79.907l-79.906-79.906L694.553,368.847z
						 M842.221,368.847l-30.686,30.684l-24.609-24.612l18.538-18.538l12.145,12.146l-6.073,6.073l-6.071-6.073l-6.073,6.073
						l12.145,12.146l18.538-18.538l-24.609-24.611L782.77,366.29l-9.908,9.909l-22.694,22.693l24.612,24.611l6.073-6.073
						l12.145-12.146l-12.145-12.146l-6.073,6.073l6.073,6.072l-6.073,6.073l-12.146-12.146l18.539-18.538l24.609,24.61
						L775.1,435.969l-37.077-37.077l0,0l-30.685-30.684l30.685-30.684l24.611,24.611l-18.538,18.539l-12.146-12.146l6.073-6.073
						l6.073,6.073l6.071-6.073l-12.145-12.146l-18.538,18.538l24.611,24.611l23.651-23.652l7.99-7.991l23.653-23.652l-24.611-24.611
						L756.24,332.09l12.146,12.146l6.072-6.073l-6.072-6.073l6.072-6.072l12.146,12.146l-18.538,18.539l-24.612-24.612
						l30.686-30.683l28.127,28.127L842.221,368.847z"/>
					<polygon id="XMLID_286_" fill="#28170E" points="789.161,288.941 854.365,354.464 854.365,340.721 802.587,288.941 					"/>
					<polygon id="XMLID_285_" fill="#28170E" points="817.929,288.941 854.365,325.697 854.365,311.954 831.353,288.941 					"/>
					<polygon id="XMLID_284_" fill="#28170E" points="802.587,448.754 854.365,396.974 854.365,383.55 789.161,448.754 					"/>
					<polygon id="XMLID_283_" fill="#28170E" points="831.353,448.754 854.365,425.74 854.365,412.316 817.929,448.754 					"/>
					<polygon id="XMLID_282_" fill="#28170E" points="746.332,288.941 694.553,340.721 694.553,354.464 760.076,288.941 					"/>
					<polygon id="XMLID_281_" fill="#28170E" points="717.566,288.941 694.553,311.954 694.553,325.697 731.311,288.941 					"/>
					<polygon id="XMLID_280_" fill="#28170E" points="694.553,396.974 746.332,448.754 760.076,448.754 694.553,383.55 					"/>
					<polygon id="XMLID_279_" fill="#28170E" points="694.553,425.74 717.566,448.754 731.311,448.754 694.553,412.316 					"/>
				</g>
				<g id="XMLID_258_">
					<path id="XMLID_277_" fill="#28170E" d="M694.553,528.66l79.906,79.906l79.906-79.906l-79.906-79.906L694.553,528.66z
						 M842.221,528.66l-30.686,30.684l-24.609-24.611l18.538-18.539l12.145,12.147l-6.073,6.072l-6.071-6.072l-6.073,6.072
						l12.145,12.146l18.538-18.538l-24.609-24.611l-22.694,22.693l-9.908,9.909l-22.694,22.692l24.612,24.611l6.073-6.073
						l12.145-12.146l-12.145-12.146l-6.073,6.073l6.073,6.072l-6.073,6.073l-12.146-12.146l18.539-18.538l24.609,24.61
						L775.1,595.781l-37.077-37.077l0,0l-30.685-30.684l30.685-30.685l24.611,24.612l-18.538,18.538l-12.146-12.146l6.073-6.073
						l6.073,6.073l6.071-6.073l-12.145-12.146l-18.538,18.539l24.611,24.61l23.651-23.651l7.99-7.991l23.653-23.652l-24.611-24.611
						l-18.539,18.538l12.146,12.146l6.072-6.072l-6.072-6.073l6.072-6.072l12.146,12.146l-18.538,18.538l-24.612-24.611
						l30.686-30.684l28.127,28.128L842.221,528.66z"/>
					<polygon id="XMLID_276_" fill="#28170E" points="789.161,448.754 854.365,514.276 854.365,500.533 802.587,448.754 					"/>
					<polygon id="XMLID_265_" fill="#28170E" points="817.929,448.754 854.365,485.51 854.365,471.767 831.353,448.754 					"/>
					<polygon id="XMLID_264_" fill="#28170E" points="802.587,608.566 854.365,556.786 854.365,543.362 789.161,608.566 					"/>
					<polygon id="XMLID_263_" fill="#28170E" points="831.353,608.566 854.365,585.553 854.365,572.129 817.929,608.566 					"/>
					<polygon id="XMLID_262_" fill="#28170E" points="746.332,448.754 694.553,500.533 694.553,514.276 760.076,448.754 					"/>
					<polygon id="XMLID_261_" fill="#28170E" points="717.566,448.754 694.553,471.767 694.553,485.51 731.311,448.754 					"/>
					<polygon id="XMLID_260_" fill="#28170E" points="694.553,556.786 746.332,608.566 760.076,608.566 694.553,543.362 					"/>
					<polygon id="XMLID_259_" fill="#28170E" points="694.553,585.553 717.566,608.566 731.311,608.566 694.553,572.129 					"/>
				</g>
				<g id="XMLID_238_">
					<path id="XMLID_257_" fill="#28170E" d="M694.553,688.473l79.906,79.906l79.906-79.906l-79.906-79.906L694.553,688.473z
						 M842.221,688.473l-30.686,30.684l-24.609-24.611l18.538-18.538l12.145,12.146l-6.073,6.072l-6.071-6.072l-6.073,6.072
						l12.145,12.146l18.538-18.538l-24.609-24.611l-22.694,22.693l-9.908,9.909l-22.694,22.692l24.612,24.611l6.073-6.073
						l12.145-12.146l-12.145-12.146l-6.073,6.073l6.073,6.072l-6.073,6.073l-12.146-12.146l18.539-18.538l24.609,24.61
						L775.1,755.594l-37.077-37.077l0,0l-30.685-30.684l30.685-30.685l24.611,24.612l-18.538,18.538l-12.146-12.146l6.073-6.073
						l6.073,6.073l6.071-6.073l-12.145-12.146l-18.538,18.539l24.611,24.61l23.651-23.651l7.99-7.991l23.653-23.652l-24.611-24.611
						l-18.539,18.538l12.146,12.146l6.072-6.072l-6.072-6.073l6.072-6.072l12.146,12.146l-18.538,18.538l-24.612-24.611
						l30.686-30.684l28.127,28.128L842.221,688.473z"/>
					<polygon id="XMLID_256_" fill="#28170E" points="789.161,608.566 854.365,674.089 854.365,660.346 802.587,608.566 					"/>
					<polygon id="XMLID_255_" fill="#28170E" points="817.929,608.566 854.365,645.323 854.365,631.579 831.353,608.566 					"/>
					<polygon id="XMLID_254_" fill="#28170E" points="802.587,768.379 854.365,716.599 854.365,703.175 789.161,768.379 					"/>
					<polygon id="XMLID_253_" fill="#28170E" points="831.353,768.379 854.365,745.365 854.365,731.941 817.929,768.379 					"/>
					<polygon id="XMLID_252_" fill="#28170E" points="746.332,608.566 694.553,660.346 694.553,674.089 760.076,608.566 					"/>
					<polygon id="XMLID_251_" fill="#28170E" points="717.566,608.566 694.553,631.579 694.553,645.323 731.311,608.566 					"/>
					<polygon id="XMLID_250_" fill="#28170E" points="694.553,716.599 746.332,768.379 760.076,768.379 694.553,703.175 					"/>
					<polygon id="XMLID_239_" fill="#28170E" points="694.553,745.365 717.566,768.379 731.311,768.379 694.553,731.941 					"/>
				</g>
				<g id="XMLID_228_">
					<path id="XMLID_237_" fill="#28170E" d="M534.741,49.222l79.906,79.906l79.905-79.906l-79.905-79.906L534.741,49.222z
						 M682.407,49.222l-30.685,30.684l-24.609-24.611l18.538-18.538l12.145,12.146l-6.073,6.073l-6.071-6.073l-6.073,6.073
						l12.145,12.146l18.538-18.539l-24.609-24.61l-22.694,22.693l-9.908,9.909l-22.693,22.693l24.611,24.612l6.073-6.073
						l12.145-12.146L621.04,73.514l-6.073,6.073l6.073,6.073l-6.073,6.073L602.82,79.586l18.539-18.538l24.61,24.611l-31.322,31.324
						L577.89,79.906l0,0l-30.683-30.684l30.683-30.684l24.611,24.611l-18.538,18.538l-12.146-12.146l6.073-6.073l6.073,6.073
						l6.073-6.073L577.89,31.323l-18.538,18.538l24.611,24.611l23.653-23.652l7.989-7.991l23.652-23.652l-24.61-24.611
						l-18.539,18.538l12.146,12.146l6.074-6.073l-6.074-6.073l6.074-6.073l12.145,12.146l-17.898,17.899l-24.611-24.611
						l30.685-30.684l28.127,28.127L682.407,49.222z"/>
					<polygon id="XMLID_236_" fill="#28170E" points="629.349,-30.684 694.553,34.839 694.553,21.095 642.774,-30.684 					"/>
					<polygon id="XMLID_235_" fill="#28170E" points="658.116,-30.684 694.553,6.073 694.553,-7.671 671.54,-30.684 					"/>
					<polygon id="XMLID_234_" fill="#28170E" points="642.774,129.128 694.553,77.349 694.553,63.925 629.349,129.128 					"/>
					<polygon id="XMLID_233_" fill="#28170E" points="671.54,129.128 694.553,106.115 694.553,92.691 658.116,129.128 					"/>
					<polygon id="XMLID_232_" fill="#28170E" points="586.52,-30.684 534.741,21.095 534.741,34.839 600.264,-30.684 					"/>
					<polygon id="XMLID_231_" fill="#28170E" points="557.754,-30.684 534.741,-7.671 534.741,6.073 571.498,-30.684 					"/>
					<polygon id="XMLID_230_" fill="#28170E" points="534.741,77.349 586.52,129.128 600.264,129.128 534.741,63.925 					"/>
					<polygon id="XMLID_229_" fill="#28170E" points="534.741,106.115 557.754,129.128 571.498,129.128 534.741,92.691 					"/>
				</g>
				<g id="XMLID_208_">
					<path id="XMLID_227_" fill="#28170E" d="M534.741,209.035l79.906,79.906l79.905-79.906l-79.905-79.906L534.741,209.035z
						 M682.407,209.035l-30.685,30.684l-24.609-24.611l18.538-18.538l12.145,12.146l-6.073,6.073l-6.071-6.073l-6.073,6.073
						l12.145,12.146l18.538-18.538l-24.609-24.611l-22.694,22.693l-9.908,9.909l-22.693,22.693l24.611,24.612l6.073-6.073
						l12.145-12.146l-12.145-12.146l-6.073,6.073l6.073,6.073l-6.073,6.073l-12.146-12.146l18.539-18.538l24.61,24.611
						l-31.322,31.324l-36.758-37.077l0,0l-30.683-30.684l30.683-30.684l24.611,24.611L583.963,221.5l-12.146-12.146l6.073-6.073
						l6.073,6.073l6.073-6.073l-12.146-12.146l-18.538,18.538l24.611,24.611l23.653-23.652l7.989-7.991l23.652-23.652l-24.61-24.611
						l-18.539,18.538l12.146,12.146l6.074-6.073l-6.074-6.073l6.074-6.073l12.145,12.146l-17.898,17.899l-24.611-24.611
						l30.685-30.684l28.127,28.127L682.407,209.035z"/>
					<polygon id="XMLID_226_" fill="#28170E" points="629.349,129.128 694.553,194.652 694.553,180.908 642.774,129.128 					"/>
					<polygon id="XMLID_225_" fill="#28170E" points="658.116,129.128 694.553,165.885 694.553,152.141 671.54,129.128 					"/>
					<polygon id="XMLID_224_" fill="#28170E" points="642.774,288.941 694.553,237.162 694.553,223.738 629.349,288.941 					"/>
					<polygon id="XMLID_213_" fill="#28170E" points="671.54,288.941 694.553,265.928 694.553,252.503 658.116,288.941 					"/>
					<polygon id="XMLID_212_" fill="#28170E" points="586.52,129.128 534.741,180.908 534.741,194.652 600.264,129.128 					"/>
					<polygon id="XMLID_211_" fill="#28170E" points="557.754,129.128 534.741,152.141 534.741,165.885 571.498,129.128 					"/>
					<polygon id="XMLID_210_" fill="#28170E" points="534.741,237.162 586.52,288.941 600.264,288.941 534.741,223.738 					"/>
					<polygon id="XMLID_209_" fill="#28170E" points="534.741,265.928 557.754,288.941 571.498,288.941 534.741,252.503 					"/>
				</g>
				<g id="XMLID_198_">
					<path id="XMLID_207_" fill="#28170E" d="M534.741,368.847l79.906,79.907l79.905-79.907l-79.905-79.906L534.741,368.847z
						 M682.407,368.847l-30.685,30.684l-24.609-24.612l18.538-18.538l12.145,12.146l-6.073,6.073l-6.071-6.073l-6.073,6.073
						l12.145,12.146l18.538-18.538l-24.609-24.611l-22.694,22.693l-9.908,9.909l-22.693,22.693l24.611,24.611l6.073-6.073
						l12.145-12.146l-12.145-12.146l-6.073,6.073l6.073,6.072l-6.073,6.073l-12.146-12.146l18.539-18.538l24.61,24.61
						l-30.683,30.685l-37.077-37.077l0,0l-30.685-30.684l30.685-30.684l24.61,24.611l-18.538,18.539l-12.146-12.146l6.073-6.073
						l6.072,6.073l6.072-6.073l-12.145-12.146l-18.538,18.538l24.61,24.611l23.652-23.652l7.99-7.991l23.653-23.652l-24.611-24.611
						l-18.539,18.538l12.146,12.146l6.073-6.073l-6.073-6.073l6.073-6.072l12.146,12.146l-18.539,18.539l-24.611-24.612
						l30.686-30.683l28.126,28.127L682.407,368.847z"/>
					<polygon id="XMLID_206_" fill="#28170E" points="629.349,288.941 694.553,354.464 694.553,340.721 642.774,288.941 					"/>
					<polygon id="XMLID_205_" fill="#28170E" points="658.116,288.941 694.553,325.697 694.553,311.954 671.54,288.941 					"/>
					<polygon id="XMLID_204_" fill="#28170E" points="642.774,448.754 694.553,396.974 694.553,383.55 629.349,448.754 					"/>
					<polygon id="XMLID_203_" fill="#28170E" points="671.54,448.754 694.553,425.74 694.553,412.316 658.116,448.754 					"/>
					<polygon id="XMLID_202_" fill="#28170E" points="586.52,288.941 534.741,340.721 534.741,354.464 600.264,288.941 					"/>
					<polygon id="XMLID_201_" fill="#28170E" points="557.754,288.941 534.741,311.954 534.741,325.697 571.498,288.941 					"/>
					<polygon id="XMLID_200_" fill="#28170E" points="534.741,396.974 586.52,448.754 600.264,448.754 534.741,383.55 					"/>
					<polygon id="XMLID_199_" fill="#28170E" points="534.741,425.74 557.754,448.754 571.498,448.754 534.741,412.316 					"/>
				</g>
				<g id="XMLID_178_">
					<path id="XMLID_187_" fill="#28170E" d="M534.741,528.66l79.906,79.906l79.905-79.906l-79.905-79.906L534.741,528.66z
						 M682.407,528.66l-30.685,30.684l-24.609-24.611l18.538-18.539l12.145,12.147l-6.073,6.072l-6.071-6.072l-6.073,6.072
						l12.145,12.146l18.538-18.538l-24.609-24.611l-22.694,22.693l-9.908,9.909l-22.693,22.692l24.611,24.611l6.073-6.073
						l12.145-12.146l-12.145-12.146l-6.073,6.073l6.073,6.072l-6.073,6.073l-12.146-12.146l18.539-18.538l24.61,24.61
						l-30.683,30.685l-37.077-37.077l0,0l-30.685-30.684l30.685-30.685l24.61,24.612l-18.538,18.538l-12.146-12.146l6.073-6.073
						l6.072,6.073l6.072-6.073l-12.145-12.146l-18.538,18.539l24.61,24.61l23.652-23.651l7.99-7.991l23.653-23.652l-24.611-24.611
						l-18.539,18.538l12.146,12.146l6.073-6.072l-6.073-6.073l6.073-6.072l12.146,12.146l-18.539,18.538l-24.611-24.611
						l30.686-30.684l28.126,28.128L682.407,528.66z"/>
					<polygon id="XMLID_186_" fill="#28170E" points="629.349,448.754 694.553,514.276 694.553,500.533 642.774,448.754 					"/>
					<polygon id="XMLID_185_" fill="#28170E" points="658.116,448.754 694.553,485.51 694.553,471.767 671.54,448.754 					"/>
					<polygon id="XMLID_184_" fill="#28170E" points="642.774,608.566 694.553,556.786 694.553,543.362 629.349,608.566 					"/>
					<polygon id="XMLID_183_" fill="#28170E" points="671.54,608.566 694.553,585.553 694.553,572.129 658.116,608.566 					"/>
					<polygon id="XMLID_182_" fill="#28170E" points="586.52,448.754 534.741,500.533 534.741,514.276 600.264,448.754 					"/>
					<polygon id="XMLID_181_" fill="#28170E" points="557.754,448.754 534.741,471.767 534.741,485.51 571.498,448.754 					"/>
					<polygon id="XMLID_180_" fill="#28170E" points="534.741,556.786 586.52,608.566 600.264,608.566 534.741,543.362 					"/>
					<polygon id="XMLID_179_" fill="#28170E" points="534.741,585.553 557.754,608.566 571.498,608.566 534.741,572.129 					"/>
				</g>
				<g id="XMLID_158_">
					<path id="XMLID_177_" fill="#28170E" d="M534.741,688.473l79.906,79.906l79.905-79.906l-79.905-79.906L534.741,688.473z
						 M682.407,688.473l-30.685,30.684l-24.609-24.611l18.538-18.538l12.145,12.146l-6.073,6.072l-6.071-6.072l-6.073,6.072
						l12.145,12.146l18.538-18.538l-24.609-24.611l-22.694,22.693l-9.908,9.909l-22.693,22.692l24.611,24.611l6.073-6.073
						l12.145-12.146l-12.145-12.146l-6.073,6.073l6.073,6.072l-6.073,6.073l-12.146-12.146l18.539-18.538l24.61,24.61
						l-30.683,30.685l-37.077-37.077l0,0l-30.685-30.684l30.685-30.685l24.61,24.612l-18.538,18.538l-12.146-12.146l6.073-6.073
						l6.072,6.073l6.072-6.073l-12.145-12.146l-18.538,18.539l24.61,24.61l23.652-23.651l7.99-7.991l23.653-23.652l-24.611-24.611
						l-18.539,18.538l12.146,12.146l6.073-6.072l-6.073-6.073l6.073-6.072l12.146,12.146l-18.539,18.538l-24.611-24.611
						l30.686-30.684l28.126,28.128L682.407,688.473z"/>
					<polygon id="XMLID_176_" fill="#28170E" points="629.349,608.566 694.553,674.089 694.553,660.346 642.774,608.566 					"/>
					<polygon id="XMLID_175_" fill="#28170E" points="658.116,608.566 694.553,645.323 694.553,631.579 671.54,608.566 					"/>
					<polygon id="XMLID_174_" fill="#28170E" points="642.774,768.379 694.553,716.599 694.553,703.175 629.349,768.379 					"/>
					<polygon id="XMLID_173_" fill="#28170E" points="671.54,768.379 694.553,745.365 694.553,731.941 658.116,768.379 					"/>
					<polygon id="XMLID_172_" fill="#28170E" points="586.52,608.566 534.741,660.346 534.741,674.089 600.264,608.566 					"/>
					<polygon id="XMLID_161_" fill="#28170E" points="557.754,608.566 534.741,631.579 534.741,645.323 571.498,608.566 					"/>
					<polygon id="XMLID_160_" fill="#28170E" points="534.741,716.599 586.52,768.379 600.264,768.379 534.741,703.175 					"/>
					<polygon id="XMLID_159_" fill="#28170E" points="534.741,745.365 557.754,768.379 571.498,768.379 534.741,731.941 					"/>
				</g>
				<g id="XMLID_148_">
					<path id="XMLID_157_" fill="#28170E" d="M374.929,49.222l79.906,79.906l79.906-79.906l-79.906-79.906L374.929,49.222z
						 M522.595,49.222l-30.684,30.684l-24.61-24.611l18.537-18.538l12.146,12.146l-6.072,6.073l-6.073-6.073l-6.072,6.073
						l12.145,12.146l18.538-18.539l-24.61-24.61l-22.693,22.693l-9.908,9.909l-22.694,22.693l24.612,24.612l6.073-6.073
						l12.146-12.146l-12.146-12.146l-6.073,6.073l6.073,6.073l-6.073,6.073l-12.146-12.146l18.539-18.538l24.61,24.611
						l-31.322,31.324l-36.758-37.077l0,0l-30.683-30.684l30.683-30.684l24.611,24.611L424.15,61.688l-12.146-12.146l6.072-6.073
						l6.073,6.073l6.073-6.073l-12.146-12.146l-18.538,18.538l24.611,24.611l23.653-23.652l7.989-7.991l23.652-23.652l-24.61-24.611
						l-18.539,18.538l12.146,12.146l6.073-6.073l-6.073-6.073l6.073-6.073l12.145,12.146l-17.897,17.899L424.15,12.465
						l30.685-30.684l28.126,28.127L522.595,49.222z"/>
					<polygon id="XMLID_156_" fill="#28170E" points="469.536,-30.684 534.741,34.839 534.741,21.095 482.961,-30.684 					"/>
					<polygon id="XMLID_155_" fill="#28170E" points="498.304,-30.684 534.741,6.073 534.741,-7.671 511.728,-30.684 					"/>
					<polygon id="XMLID_154_" fill="#28170E" points="482.961,129.128 534.741,77.349 534.741,63.925 469.536,129.128 					"/>
					<polygon id="XMLID_153_" fill="#28170E" points="511.728,129.128 534.741,106.115 534.741,92.691 498.304,129.128 					"/>
					<polygon id="XMLID_152_" fill="#28170E" points="426.707,-30.684 374.929,21.095 374.929,34.839 440.451,-30.684 					"/>
					<polygon id="XMLID_151_" fill="#28170E" points="397.941,-30.684 374.929,-7.671 374.929,6.073 411.686,-30.684 					"/>
					<polygon id="XMLID_150_" fill="#28170E" points="374.929,77.349 426.707,129.128 440.451,129.128 374.929,63.925 					"/>
					<polygon id="XMLID_149_" fill="#28170E" points="374.929,106.115 397.941,129.128 411.686,129.128 374.929,92.691 					"/>
				</g>
				<g id="XMLID_128_">
					<path id="XMLID_147_" fill="#28170E" d="M374.929,209.035l79.906,79.906l79.906-79.906l-79.906-79.906L374.929,209.035z
						 M522.595,209.035l-30.684,30.684l-24.61-24.611l18.537-18.538l12.146,12.146l-6.072,6.073l-6.073-6.073l-6.072,6.073
						l12.145,12.146l18.538-18.538l-24.61-24.611l-22.693,22.693l-9.908,9.909l-22.694,22.693l24.612,24.612l6.073-6.073
						l12.146-12.146l-12.146-12.146l-6.073,6.073l6.073,6.073l-6.073,6.073l-12.146-12.146l18.539-18.538l24.61,24.611
						l-31.322,31.324l-36.758-37.077l0,0l-30.683-30.684l30.683-30.684l24.611,24.611L424.15,221.5l-12.146-12.146l6.072-6.073
						l6.073,6.073l6.073-6.073l-12.146-12.146l-18.538,18.538l24.611,24.611l23.653-23.652l7.989-7.991l23.652-23.652l-24.61-24.611
						l-18.539,18.538l12.146,12.146l6.073-6.073l-6.073-6.073l6.073-6.073l12.145,12.146l-17.897,17.899l-24.612-24.611
						l30.685-30.684l28.126,28.127L522.595,209.035z"/>
					<polygon id="XMLID_146_" fill="#28170E" points="469.536,129.128 534.741,194.652 534.741,180.908 482.961,129.128 					"/>
					<polygon id="XMLID_135_" fill="#28170E" points="498.304,129.128 534.741,165.885 534.741,152.141 511.728,129.128 					"/>
					<polygon id="XMLID_134_" fill="#28170E" points="482.961,288.941 534.741,237.162 534.741,223.738 469.536,288.941 					"/>
					<polygon id="XMLID_133_" fill="#28170E" points="511.728,288.941 534.741,265.928 534.741,252.503 498.304,288.941 					"/>
					<polygon id="XMLID_132_" fill="#28170E" points="426.707,129.128 374.929,180.908 374.929,194.652 440.451,129.128 					"/>
					<polygon id="XMLID_131_" fill="#28170E" points="397.941,129.128 374.929,152.141 374.929,165.885 411.686,129.128 					"/>
					<polygon id="XMLID_130_" fill="#28170E" points="374.929,237.162 426.707,288.941 440.451,288.941 374.929,223.738 					"/>
					<polygon id="XMLID_129_" fill="#28170E" points="374.929,265.928 397.941,288.941 411.686,288.941 374.929,252.503 					"/>
				</g>
				<g id="XMLID_108_">
					<path id="XMLID_127_" fill="#28170E" d="M374.929,368.847l79.906,79.907l79.906-79.907l-79.906-79.906L374.929,368.847z
						 M522.595,368.847l-30.684,30.684l-24.61-24.612l18.537-18.538l12.146,12.146l-6.072,6.073l-6.073-6.073l-6.072,6.073
						l12.145,12.146l18.538-18.538l-24.61-24.611l-22.693,22.693l-9.908,9.909l-22.694,22.693l24.612,24.611l6.073-6.073
						l12.146-12.146l-12.146-12.146l-6.073,6.073l6.073,6.072l-6.073,6.073l-12.146-12.146l18.539-18.538l24.61,24.61
						l-30.683,30.685l-37.077-37.077l0,0l-30.685-30.684l30.685-30.684l24.61,24.611l-18.538,18.539l-12.146-12.146l6.073-6.073
						l6.072,6.073l6.072-6.073l-12.145-12.146l-18.538,18.538l24.61,24.611l23.652-23.652l7.99-7.991l23.653-23.652l-24.611-24.611
						l-18.539,18.538l12.147,12.146l6.072-6.073l-6.072-6.073l6.072-6.072l12.146,12.146l-18.538,18.539L423.83,332.09
						l30.686-30.683l28.126,28.127L522.595,368.847z"/>
					<polygon id="XMLID_126_" fill="#28170E" points="469.536,288.941 534.741,354.464 534.741,340.721 482.961,288.941 					"/>
					<polygon id="XMLID_125_" fill="#28170E" points="498.304,288.941 534.741,325.697 534.741,311.954 511.728,288.941 					"/>
					<polygon id="XMLID_124_" fill="#28170E" points="482.961,448.754 534.741,396.974 534.741,383.55 469.536,448.754 					"/>
					<polygon id="XMLID_123_" fill="#28170E" points="511.728,448.754 534.741,425.74 534.741,412.316 498.304,448.754 					"/>
					<polygon id="XMLID_122_" fill="#28170E" points="426.707,288.941 374.929,340.721 374.929,354.464 440.451,288.941 					"/>
					<polygon id="XMLID_121_" fill="#28170E" points="397.941,288.941 374.929,311.954 374.929,325.697 411.686,288.941 					"/>
					<polygon id="XMLID_120_" fill="#28170E" points="374.929,396.974 426.707,448.754 440.451,448.754 374.929,383.55 					"/>
					<polygon id="XMLID_109_" fill="#28170E" points="374.929,425.74 397.941,448.754 411.686,448.754 374.929,412.316 					"/>
				</g>
				<g id="XMLID_98_">
					<path id="XMLID_107_" fill="#28170E" d="M374.929,528.66l79.906,79.906l79.906-79.906l-79.906-79.906L374.929,528.66z
						 M522.595,528.66l-30.684,30.684l-24.61-24.611l18.537-18.539l12.146,12.147l-6.072,6.072l-6.073-6.072l-6.072,6.072
						l12.145,12.146l18.538-18.538l-24.61-24.611l-22.693,22.693l-9.908,9.909l-22.694,22.692l24.612,24.611l6.073-6.073
						l12.146-12.146l-12.146-12.146l-6.073,6.073l6.073,6.072l-6.073,6.073l-12.146-12.146l18.539-18.538l24.61,24.61
						l-30.683,30.685l-37.077-37.077l0,0l-30.685-30.684l30.685-30.685l24.61,24.612l-18.538,18.538l-12.146-12.146l6.073-6.073
						l6.072,6.073l6.072-6.073l-12.145-12.146l-18.538,18.539l24.61,24.61l23.652-23.651l7.99-7.991l23.653-23.652l-24.611-24.611
						l-18.539,18.538l12.147,12.146l6.072-6.072l-6.072-6.073l6.072-6.072l12.146,12.146l-18.538,18.538l-24.612-24.611
						l30.686-30.684l28.126,28.128L522.595,528.66z"/>
					<polygon id="XMLID_106_" fill="#28170E" points="469.536,448.754 534.741,514.276 534.741,500.533 482.961,448.754 					"/>
					<polygon id="XMLID_105_" fill="#28170E" points="498.304,448.754 534.741,485.51 534.741,471.767 511.728,448.754 					"/>
					<polygon id="XMLID_104_" fill="#28170E" points="482.961,608.566 534.741,556.786 534.741,543.362 469.536,608.566 					"/>
					<polygon id="XMLID_103_" fill="#28170E" points="511.728,608.566 534.741,585.553 534.741,572.129 498.304,608.566 					"/>
					<polygon id="XMLID_102_" fill="#28170E" points="426.707,448.754 374.929,500.533 374.929,514.276 440.451,448.754 					"/>
					<polygon id="XMLID_101_" fill="#28170E" points="397.941,448.754 374.929,471.767 374.929,485.51 411.686,448.754 					"/>
					<polygon id="XMLID_100_" fill="#28170E" points="374.929,556.786 426.707,608.566 440.451,608.566 374.929,543.362 					"/>
					<polygon id="XMLID_99_" fill="#28170E" points="374.929,585.553 397.941,608.566 411.686,608.566 374.929,572.129 					"/>
				</g>
				<g id="XMLID_78_">
					<path id="XMLID_97_" fill="#28170E" d="M374.929,688.473l79.906,79.906l79.906-79.906l-79.906-79.906L374.929,688.473z
						 M522.595,688.473l-30.684,30.684l-24.61-24.611l18.537-18.538l12.146,12.146l-6.072,6.072l-6.073-6.072l-6.072,6.072
						l12.145,12.146l18.538-18.538l-24.61-24.611l-22.693,22.693l-9.908,9.909l-22.694,22.692l24.612,24.611l6.073-6.073
						l12.146-12.146l-12.146-12.146l-6.073,6.073l6.073,6.072l-6.073,6.073l-12.146-12.146l18.539-18.538l24.61,24.61
						l-30.683,30.685l-37.077-37.077l0,0l-30.685-30.684l30.685-30.685l24.61,24.612l-18.538,18.538l-12.146-12.146l6.073-6.073
						l6.072,6.073l6.072-6.073l-12.145-12.146l-18.538,18.539l24.61,24.61l23.652-23.651l7.99-7.991l23.653-23.652l-24.611-24.611
						l-18.539,18.538l12.147,12.146l6.072-6.072l-6.072-6.073l6.072-6.072l12.146,12.146l-18.538,18.538l-24.612-24.611
						l30.686-30.684l28.126,28.128L522.595,688.473z"/>
					<polygon id="XMLID_96_" fill="#28170E" points="469.536,608.566 534.741,674.089 534.741,660.346 482.961,608.566 					"/>
					<polygon id="XMLID_95_" fill="#28170E" points="498.304,608.566 534.741,645.323 534.741,631.579 511.728,608.566 					"/>
					<polygon id="XMLID_94_" fill="#28170E" points="482.961,768.379 534.741,716.599 534.741,703.175 469.536,768.379 					"/>
					<polygon id="XMLID_83_" fill="#28170E" points="511.728,768.379 534.741,745.365 534.741,731.941 498.304,768.379 					"/>
					<polygon id="XMLID_82_" fill="#28170E" points="426.707,608.566 374.929,660.346 374.929,674.089 440.451,608.566 					"/>
					<polygon id="XMLID_81_" fill="#28170E" points="397.941,608.566 374.929,631.579 374.929,645.323 411.686,608.566 					"/>
					<polygon id="XMLID_80_" fill="#28170E" points="374.929,716.599 426.707,768.379 440.451,768.379 374.929,703.175 					"/>
					<polygon id="XMLID_79_" fill="#28170E" points="374.929,745.365 397.941,768.379 411.686,768.379 374.929,731.941 					"/>
				</g>
				<g id="XMLID_68_">
					<path id="XMLID_77_" fill="#28170E" d="M215.116,49.222l79.906,79.906l79.907-79.906l-79.907-79.906L215.116,49.222z
						 M362.782,49.222l-30.684,30.684l-24.611-24.611l18.219-18.218l12.146,12.146l-6.072,6.073l-6.073-6.073l-6.073,6.073
						l12.146,12.146l18.538-18.539l-24.611-24.291l-22.693,22.693l-9.908,9.908l-22.693,22.693l24.611,24.611l6.073-6.073
						l12.466-12.146l-12.146-12.146l-6.073,6.072l6.073,6.073l-6.073,6.073l-12.146-12.146l18.538-18.538l24.611,24.611
						l-31.323,30.684l-37.077-37.077l0,0l-30.684-30.684l30.684-30.684l24.611,24.611l-18.539,18.538l-12.146-12.146l6.073-6.073
						l6.073,6.073l6.073-6.073l-12.146-12.146l-18.538,18.538l24.611,24.611L287.67,50.82l7.991-7.991l23.652-23.652L294.702-5.434
						l-18.538,18.538L288.31,25.25l6.073-6.073l-6.073-6.073l6.073-6.073l12.146,12.146l-17.579,17.899l-24.611-24.611
						l30.684-30.684l28.126,28.127L362.782,49.222z"/>
					<polygon id="XMLID_76_" fill="#28170E" points="309.725,-30.684 374.929,34.839 374.929,21.095 323.148,-30.684 					"/>
					<polygon id="XMLID_75_" fill="#28170E" points="338.491,-30.684 374.929,6.073 374.929,-7.671 351.915,-30.684 					"/>
					<polygon id="XMLID_74_" fill="#28170E" points="323.148,129.128 374.929,77.349 374.929,63.925 309.725,129.128 					"/>
					<polygon id="XMLID_73_" fill="#28170E" points="351.915,129.128 374.929,106.115 374.929,92.691 338.491,129.128 					"/>
					<polygon id="XMLID_72_" fill="#28170E" points="266.895,-30.684 215.116,21.095 215.116,34.839 280.639,-30.684 					"/>
					<polygon id="XMLID_71_" fill="#28170E" points="238.128,-30.684 215.116,-7.671 215.116,6.073 251.873,-30.684 					"/>
					<polygon id="XMLID_70_" fill="#28170E" points="215.116,77.349 266.895,129.128 280.639,129.128 215.116,63.925 					"/>
					<polygon id="XMLID_69_" fill="#28170E" points="215.116,106.115 238.128,129.128 251.873,129.128 215.116,92.691 					"/>
				</g>
				<g id="XMLID_48_">
					<path id="XMLID_57_" fill="#28170E" d="M215.116,209.035l79.906,79.906l79.907-79.906l-79.907-79.906L215.116,209.035z
						 M362.782,209.035l-30.684,30.684l-24.611-24.611l18.219-18.218l12.146,12.146l-6.072,6.073l-6.073-6.073l-6.073,6.073
						l12.146,12.146l18.538-18.539l-24.611-24.611l-22.693,22.693l-9.908,9.908l-22.693,22.693l24.611,24.611l6.073-6.073
						l12.466-11.826l-12.146-12.146l-6.073,6.073l6.073,6.073l-6.073,6.073l-12.146-12.146l18.538-18.539l24.611,24.611
						l-31.323,30.684l-37.077-37.077l0,0l-30.684-30.684l30.684-30.684l24.611,24.611L264.018,221.5l-12.146-12.146l6.073-6.073
						l6.073,6.073l6.073-6.073l-12.146-12.146l-18.538,18.538l24.611,24.611l23.652-23.652l7.991-7.991l23.652-23.652
						l-24.611-24.611l-18.538,18.538l12.146,12.146l6.073-6.073l-6.073-6.073l6.073-6.073l12.146,12.146l-17.579,17.899
						l-24.611-24.611l30.684-30.684l28.126,28.127L362.782,209.035z"/>
					<polygon id="XMLID_56_" fill="#28170E" points="309.725,129.128 374.929,194.652 374.929,180.908 323.148,129.128 					"/>
					<polygon id="XMLID_55_" fill="#28170E" points="338.491,129.128 374.929,165.885 374.929,152.141 351.915,129.128 					"/>
					<polygon id="XMLID_54_" fill="#28170E" points="323.148,288.941 374.929,237.162 374.929,223.738 309.725,288.941 					"/>
					<polygon id="XMLID_53_" fill="#28170E" points="351.915,288.941 374.929,265.928 374.929,252.503 338.491,288.941 					"/>
					<polygon id="XMLID_52_" fill="#28170E" points="266.895,129.128 215.116,180.908 215.116,194.652 280.639,129.128 					"/>
					<polygon id="XMLID_51_" fill="#28170E" points="238.128,129.128 215.116,152.141 215.116,165.885 251.873,129.128 					"/>
					<polygon id="XMLID_50_" fill="#28170E" points="215.116,237.162 266.895,288.941 280.639,288.941 215.116,223.738 					"/>
					<polygon id="XMLID_49_" fill="#28170E" points="215.116,265.928 238.128,288.941 251.873,288.941 215.116,252.503 					"/>
				</g>
				<g id="XMLID_28_">
					<path id="XMLID_47_" fill="#28170E" d="M215.116,368.847l79.906,79.907l79.907-79.907l-79.907-79.906L215.116,368.847z
						 M362.782,368.847l-30.684,30.684l-24.611-24.612l18.538-18.538l12.146,12.146l-6.072,6.073l-6.073-6.073l-6.073,6.073
						l12.146,12.146l18.537-18.538l-24.61-24.611l-22.693,22.693l-9.909,9.909l-22.694,22.693l24.611,24.611l6.073-6.073
						l12.146-12.146l-12.146-12.146l-6.073,6.073l6.073,6.072l-6.073,6.073l-12.146-12.146l18.538-18.538l24.611,24.61
						l-30.684,30.685l-37.077-37.077l0,0L227.9,368.208l30.684-30.684l24.611,24.611l-18.539,18.539l-12.146-12.146l6.073-6.073
						l6.073,6.073l6.073-6.073l-12.146-12.146l-18.538,18.538l24.611,24.611l23.652-23.652l7.991-7.991l23.652-23.652
						l-24.611-24.611l-18.538,18.538l12.146,12.146l6.073-6.073l-6.073-6.073l6.073-6.072l12.146,12.146l-18.539,18.539
						l-24.611-24.612l30.684-30.683l28.127,28.127L362.782,368.847z"/>
					<polygon id="XMLID_46_" fill="#28170E" points="309.725,288.941 374.929,354.464 374.929,340.721 323.148,288.941 					"/>
					<polygon id="XMLID_45_" fill="#28170E" points="338.491,288.941 374.929,325.697 374.929,311.954 351.915,288.941 					"/>
					<polygon id="XMLID_44_" fill="#28170E" points="323.148,448.754 374.929,396.974 374.929,383.55 309.725,448.754 					"/>
					<polygon id="XMLID_43_" fill="#28170E" points="351.915,448.754 374.929,425.74 374.929,412.316 338.491,448.754 					"/>
					<polygon id="XMLID_42_" fill="#28170E" points="266.895,288.941 215.116,340.721 215.116,354.464 280.639,288.941 					"/>
					<polygon id="XMLID_31_" fill="#28170E" points="238.128,288.941 215.116,311.954 215.116,325.697 251.873,288.941 					"/>
					<polygon id="XMLID_30_" fill="#28170E" points="215.116,396.974 266.895,448.754 280.639,448.754 215.116,383.55 					"/>
					<polygon id="XMLID_29_" fill="#28170E" points="215.116,425.74 238.128,448.754 251.873,448.754 215.116,412.316 					"/>
				</g>
				<g id="XMLID_18_">
					<path id="XMLID_27_" fill="#28170E" d="M215.116,528.66l79.906,79.906l79.907-79.906l-79.907-79.906L215.116,528.66z
						 M362.782,528.66l-30.684,30.684l-24.611-24.611l18.538-18.539l12.146,12.147l-6.072,6.072l-6.073-6.072l-6.073,6.072
						l12.146,12.146l18.537-18.538l-24.61-24.611l-22.693,22.693l-9.909,9.909l-22.694,22.692l24.611,24.611l6.073-6.073
						l12.146-12.146l-12.146-12.146l-6.073,6.073l6.073,6.072l-6.073,6.073l-12.146-12.146l18.538-18.538l24.611,24.61
						l-30.684,30.685l-37.077-37.077l0,0L227.9,528.021l30.684-30.685l24.611,24.612l-18.539,18.538l-12.146-12.146l6.073-6.073
						l6.073,6.073l6.073-6.073l-12.146-12.146l-18.538,18.539l24.611,24.61l23.652-23.651l7.991-7.991l23.652-23.652l-24.611-24.611
						l-18.538,18.538l12.146,12.146l6.073-6.072l-6.073-6.073l6.073-6.072l12.146,12.146l-18.539,18.538l-24.611-24.611
						l30.684-30.684l28.127,28.128L362.782,528.66z"/>
					<polygon id="XMLID_26_" fill="#28170E" points="309.725,448.754 374.929,514.276 374.929,500.533 323.148,448.754 					"/>
					<polygon id="XMLID_25_" fill="#28170E" points="338.491,448.754 374.929,485.51 374.929,471.767 351.915,448.754 					"/>
					<polygon id="XMLID_24_" fill="#28170E" points="323.148,608.566 374.929,556.786 374.929,543.362 309.725,608.566 					"/>
					<polygon id="XMLID_23_" fill="#28170E" points="351.915,608.566 374.929,585.553 374.929,572.129 338.491,608.566 					"/>
					<polygon id="XMLID_22_" fill="#28170E" points="266.895,448.754 215.116,500.533 215.116,514.276 280.639,448.754 					"/>
					<polygon id="XMLID_21_" fill="#28170E" points="238.128,448.754 215.116,471.767 215.116,485.51 251.873,448.754 					"/>
					<polygon id="XMLID_20_" fill="#28170E" points="215.116,556.786 266.895,608.566 280.639,608.566 215.116,543.362 					"/>
					<polygon id="XMLID_19_" fill="#28170E" points="215.116,585.553 238.128,608.566 251.873,608.566 215.116,572.129 					"/>
				</g>
				<g id="XMLID_8_">
					<path id="XMLID_17_" fill="#28170E" d="M215.116,688.473l79.906,79.906l79.907-79.906l-79.907-79.906L215.116,688.473z
						 M362.782,688.473l-30.684,30.684l-24.611-24.611l18.538-18.538l12.146,12.146l-6.072,6.072l-6.073-6.072l-6.073,6.072
						l12.146,12.146l18.537-18.538l-24.61-24.611l-22.693,22.693l-9.909,9.909l-22.694,22.692l24.611,24.611l6.073-6.073
						l12.146-12.146l-12.146-12.146l-6.073,6.073l6.073,6.072l-6.073,6.073l-12.146-12.146l18.538-18.538l24.611,24.61
						l-30.684,30.685l-37.077-37.077l0,0L227.9,687.833l30.684-30.685l24.611,24.612l-18.539,18.538l-12.146-12.146l6.073-6.073
						l6.073,6.073l6.073-6.073l-12.146-12.146l-18.538,18.539l24.611,24.61l23.652-23.651l7.991-7.991l23.652-23.652l-24.611-24.611
						l-18.538,18.538l12.146,12.146l6.073-6.072l-6.073-6.073l6.073-6.072l12.146,12.146l-18.539,18.538l-24.611-24.611
						l30.684-30.684l28.127,28.128L362.782,688.473z"/>
					<polygon id="XMLID_16_" fill="#28170E" points="309.725,608.566 374.929,674.089 374.929,660.346 323.148,608.566 					"/>
					<polygon id="XMLID_15_" fill="#28170E" points="338.491,608.566 374.929,645.323 374.929,631.579 351.915,608.566 					"/>
					<polygon id="XMLID_14_" fill="#28170E" points="323.148,768.379 374.929,716.599 374.929,703.175 309.725,768.379 					"/>
					<polygon id="XMLID_13_" fill="#28170E" points="351.915,768.379 374.929,745.365 374.929,731.941 338.491,768.379 					"/>
					<polygon id="XMLID_12_" fill="#28170E" points="266.895,608.566 215.116,660.346 215.116,674.089 280.639,608.566 					"/>
					<polygon id="XMLID_11_" fill="#28170E" points="238.128,608.566 215.116,631.579 215.116,645.323 251.873,608.566 					"/>
					<polygon id="XMLID_10_" fill="#28170E" points="215.116,716.599 266.895,768.379 280.639,768.379 215.116,703.175 					"/>
					<polygon id="XMLID_9_" fill="#28170E" points="215.116,745.365 238.128,768.379 251.873,768.379 215.116,731.941 					"/>
				</g>
			</g>
		</g>
	</g>
</g>
</svg>
